# ideas = 
# {
# 	hidden_ideas = 
# 	{
# 		//population_growth_explosion = 
# 		{
		
# 			picture = population_explosion
			
# 			allowed = { always = no }
# 			allowed_civil_war = { always = yes }
			
# 			modifier = 
# 			{ 
# 				MONTHLY_POPULATION = 1.25
# 				consumer_goods_factor = 0.12
# 				research_time_factor = 0.02
# 			}
			
# 		}
		
# 		population_growth_rapid = 
# 		{
			
# 			picture = population_rapid_growth
			
# 			allowed = { always = no }
# 			allowed_civil_war = { always = yes }
			
# 			modifier = 
# 			{ 
# 				MONTHLY_POPULATION = 0.6
# 				consumer_goods_factor = 0.08
# 			}
			
# 		}
		
# 		population_growth_steady = 
# 		{
			
# 			picture = population_growth
			
# 			allowed = { always = no }
# 			allowed_civil_war = { always = yes }
			
# 			modifier = 
# 			{
# 				consumer_goods_factor = 0.04
# 				research_time_factor = -0.02
# 			}
			
# 		}
		
# 		population_growth_stagnation = 
# 		{
			
# 			picture = population_stagnation
			
# 			allowed = { always = no }
# 			allowed_civil_war = { always = yes }
			
# 			modifier = 
# 			{ 
# 				MONTHLY_POPULATION = -0.6
# 				research_time_factor = -0.04
# 			}
			
# 		}
		
# 		population_growth_decline = 
# 		{
			
# 			picture = population_decline
			
# 			allowed = { always = no }
# 			allowed_civil_war = { always = yes }
			
# 			modifier = 
# 			{ 
# 				MONTHLY_POPULATION = -1.25
# 				research_time_factor = -0.06
# 				consumer_goods_factor = -0.08
# 			}
			
# 		}
		
# 	}
	
# }