ideas = {
	
	country = {
		
		idea_PRC_chinese_socialism = {
			picture = marxism_leninism_china
			
			allowed = { always = no }
			
			removal_cost = -1
			
			modifier = {
				industrial_capacity_factory = 0.05
			}
			
			rule = {
				can_create_factions = yes
			}
		}
		
		idea_PRC_one_child_policy = {
			picture = risk_of_famine
			
			allowed = { always = no }
			
			removal_cost = -1
			
			modifier = {
				political_power_gain = 0.35
				drift_defence_factor = 0.25
				MONTHLY_POPULATION = -1
			}
			
			rule = {
				can_create_factions = yes
			}
			
		}

		idea_focus_PRC_china_dream = {
			picture = scw_intervention_rep
			
			allowed = { always = no }
			removal_cost = -1
			
			modifier = {
				drift_defence_factor = 0.10
				training_time_factor = -0.05
			}
		}

		idea_focus_PRC_patriotic_broadcasts = {
			allowed = { always = no }
			
			picture = prc_patriotic_boradcasts
			removal_cost = -1


			modifier = {
			justify_war_goal_time = -0.2
			}
		}

		idea_focus_PRC_serve_people = {
			picture = intel_bonus
			
			allowed = { always = no }
			removal_cost = -1

			modifier = {
			conscription = 0.01  
			army_morale_factor = 0.05
			}
		}

		idea_focus_PRC_democracy = {
			picture = democracy
			
			allowed = { always = no }
			removal_cost = -1
			
			modifier = {
				marxism_leninism_drift = -0.05
				autocracy_drift = -0.04
				nationalism_drift = -0.03
				oligarchy_drift = -0.02
			}
		}

		idea_focus_PRC_new_republic = {
			allowed = { always = no }
			
			picture = volunteer_expedition_bonus
			removal_cost = -1
			
			modifier = {
				stability_factor = 0.05
				training_time_factor = -0.05
				army_morale_factor = 0.05
				liberalism_drift = 0.01
				
			}
		}

		idea_focus_PRC_restored_republic = {
			picture = national_mobilization
			
			allowed = { always = no }
			removal_cost = -1
			
			modifier = {
				political_power_factor = 0.05
				drift_defence_factor = 0.10
				trade_opinion_factor = 0.05
				social_democracy_drift = 0.01
			}
		}

		idea_focus_PRC_core_interests = {
			allowed = { always = no }
			
			picture = general_staff
			removal_cost = -1

			modifier = {
				justify_war_goal_time = -0.05
			}
		}

		idea_focus_PRC_educational_exchanges = {
			picture = research_bonus
		
			allowed = { always = no }
			removal_cost = -1
			
			modifier = {
				research_time_factor = -0.02
			}
		}

		idea_focus_PRC_economic_liberalization = {
			picture = production_bonus
		
			allowed = { always = no }
			removal_cost = -1

			modifier = {
				production_speed_buildings_factor = 0.05
			}
		}

		idea_focus_PRC_free_markets = {
			picture = consumer_goods
		
			allowed = { always = no }
			removal_cost = -1

			modifier = {
				local_resources_factor = 0.05
				industrial_capacity_factory = 0.02
			}
		}
		
	}
}