ideas = {

	country = {
	
		FRA_elan = {
			
			allowed = {
				always = no
			}
			
			picture = morale_bonus
			
			modifier = {
				army_morale_factor = 0.1
				justify_war_goal_time = -0.1
			}
			
		}
	
		FRA_innovation_of_warfare = {
			
			allowed = {
				always = no
			}
			
			picture = national_mobilization
			
			modifier = {
				army_org_Factor = 0.05
			}
			
		}
	
		FRA_imperial_merchants = {
			
			allowed = {
				always = no
			}
			
			picture = trade
			
			modifier = {
				production_speed_buildings_factor = 0.05
				consumer_goods_factor = -0.01
			}
			
		}
	
		FRA_european_officer_school = {
			
			allowed = {
				always = no
			}
			
			picture = gentlemen_officers
			
			modifier = {
				army_leader_start_level = 1
			}
			
		}
	
		FRA_imperial_honor = {
			
			allowed = {
				always = no
			}
			
			picture = fascism3
			
			modifier = {
				industrial_capacity_factory = 0.2
				justify_war_goal_time = -0.1
			}
			
		}
	
		FRA_socialist_industrial_association = {
			
			allowed = {
				always = no
			}
			
			picture = vladimir_lenin
			
			modifier = {
				industrial_capacity_factory = 0.15
			}
			
		}
	
		FRA_centralizations_of_research = {
			
			allowed = {
				always = no
			}
			
			picture = research_bonus
			
			modifier = {
				research_time_factor = -0.02
			}
			
		}
	
		FRA_research_revolutions = {
			
			allowed = {
				always = no
			}
			
			picture = research_bonus
			
			modifier = {
				research_time_factor = -0.02
			}
			
		}
	
		FRA_european_research_project = {
			
			allowed = {
				always = no
			}
			
			picture = research_bonus
			
			modifier = {
				research_time_factor = -0.03
			}
			
		}
	
		FRA_racial_society = {
			
			allowed = {
				always = no
			}
			
			picture = fascism
			
			modifier = {
				autocracy_drift = 0.04
			}
			
		}
	
		FRA_taxation_reform_idea = {
			
			allowed = {
				always = no
			}
			
			picture = consumer_goods
			
			modifier = {
				consumer_goods_factor = -0.02
			}
			
		}
	
		FRA_fraternity_movement_reformed = {
			
			allowed = {
				always = no
			}
			
			picture = fascism3
			
			modifier = {
				monarchism_drift = 0.03
			}
			
		}
	
		FRA_prison_workforce_mobilized = {
			
			allowed = {
				always = no
			}
			
			picture = prisoners
			
			modifier = {
				industrial_capacity_factory = 0.1
			}
			
		}
	
		FRA_persecution_of_enemies_of_communism = {
			
			allowed = {
				always = no
			}
			
			picture = communism7
			
			modifier = {
				marxism_leninism_drift = 0.03
				socialist_authoritarianism_drift = -0.01
				market_socialism_drift = -0.01
				neo_socialism_drift = -0.01
				social_democracy_drift = -0.01
				conservatism_drift = -0.01
				oligarchy_drift = -0.02
				monarchism_drift = -0.01
				autocracy_drift = -0.02
				nationalism_drift = -0.02
				salafism_drift = -0.02
			}
			
		}
		
		FRA_reformed_officer_school = {
			
			allowed = {
				always = no
			}
			
			picture = general_staff
			
			modifier = {
				army_leader_start_level = 1
				experience_gain_army = 0.01
			}
			
		}
		
		FRA_keepers_of_democracy = {
			
			allowed = {
				always = no
			}
			
			picture = fortification2
			
			modifier = {
				oligarchy_drift = 0.04
			}
			
		}
		
		FRA_land_fort_idea = {
			
			allowed = {
				always = no
			}
			
			picture = fortification
			
			modifier = {
				production_speed_bunker_factor = 0.2
			}
			
		}
		
		FRA_coastal_fort_idea = {
			
			allowed = {
				always = no
			}
			
			picture = fortification3
			
			modifier = {
				production_speed_coastal_bunker_factor = 0.2
			}
			
		}
		
		FRA_nationalism_militias = {
			
			allowed = {
				always = no
			}
			
			picture = manpower_bonus
			
			modifier = {
				conscription = 0.01
			}
			
		}
		
		FRA_french_militarism = {
			
			allowed = {
				always = no
			}
			
			picture = air_war_plans_division
			
			modifier = {
				conscription = 0.01
				experience_gain_army_factor = 0.1
			}
			
		}
		
		FRA_air_force_officer_school = {
			
			allowed = {
				always = no
			}
			
			picture = air_bonus
			
			modifier = {
				experience_gain_air = 0.02
			}
			
		}
	
		FRA_civilian_buildup_program = {
			
			allowed = {
				always = no
			}
			
			picture = construction
			
			modifier = {
				production_speed_industrial_complex_factor = 0.1
				production_speed_naval_base_factor = 0.1
			}
			
		}
	
		FRA_military_buildup_program = {
			
			allowed = {
				always = no
			}
			
			picture = production_bonus
			
			modifier = {
				production_speed_arms_factory_factor = 0.1
				production_speed_industrial_complex_factor = 0.1
			}
			
		}
	
		FRA_gulags = {
			
			allowed = {
				always = no
			}
			
			picture = prisoners
			
			modifier = {
				marxism_leninism_drift = 0.04
				production_speed_infrastructure_factor = 0.05
				drift_defence_factor = 0.2
			}
			
		}
		
		FRA_national_fellowship = {
			
			allowed = {
				always = no
			}
			
			picture = scw_intervention_nat
			
			modifier = {
				political_power_factor = 0.05
				industrial_capacity_factory = 0.05
				training_time_factor = -0.05
			}
			
		}
		
		FRA_red_militias_idea = {
			
			allowed = {
				always = no
			}
			
			picture = scw_intervention_rep
			
			modifier = {
				conscription = 0.02
			}
			
		}
		
		FRA_european_brigades_idea = {
			
			allowed = {
				always = no
			}
			
			picture = intel_bonus
			
			modifier = {
				conscription = 0.01
			}
			
		}
		
		FRA_red_guards_idea = {
			
			allowed = {
				always = no
			}
			
			picture = communism4
			
			modifier = {
				conscription_factor = 0.2
				marxism_leninism_drift = 0.05
			}
			
		}
		
		FRA_administrative_reforms_1 = {
			
			allowed = {
				always = no
			}
			
			picture = political_power_bonus
			
			modifier = {
				political_power_factor = 0.1
			}
			
		}
		
		FRA_administrative_reforms_2 = {
			
			allowed = {
				always = no
			}
			
			picture = political_power_bonus
			
			modifier = {
				political_power_factor = 0.2
				drift_defence_factor = 0.2
			}
			
		}
		
		FRA_class_equality_reform = {
			
			allowed = {
				always = no
			}
			
			picture = communism2
			
			modifier = {
				marxism_leninism_drift = 0.03
				neo_socialism_drift = 0.01
				drift_defence_factor = 0.1
				stability_weekly = 0.001
			}
			
		}
		
		FRA_popular_ministry = {
			
			allowed = {
				always = no
			}
			
			picture = communism5
			
			modifier = {
				marxism_leninism_drift = 0.03
			}
			
		}
		
		FRA_border_ministry = {
			
			allowed = {
				always = no
			}
			
			picture = volunteer_defenders
			
			modifier = {
				drift_defence_factor = 0.2
				stability_weekly = 0.001
				MONTHLY_POPULATION = -0.05
			}
			
		}
		
		FRA_restoration_society = {
			
			allowed = {
				always = no
			}
			
			picture = morale_bonus
			
			modifier = {
				monarchism_drift = 0.04
				stability_factor = 0.05
			}
			
		}
		
		FRA_increased_border_controls_1 = {
			
			allowed = {
				always = no
			}
			
			picture = fortification2
			
			modifier = {
				stability_factor = 0.05
				MONTHLY_POPULATION = -0.05
			}
		}
		
		FRA_increased_border_controls_2 = {
			
			allowed = {
				always = no
			}
			
			picture = fortification2
			
			modifier = {
				stability_factor = 0.05
				monarchism_drift = 0.01
				nationalism_drift = 0.01
				autocracy_drift = 0.01
				MONTHLY_POPULATION = -0.1
			}
		}
		
		FRA_anti_leftist_education_program = {
			
			allowed = {
				always = no
			}
			
			picture = matignon_agreements
			
			modifier = {
				marxism_leninism_drift = -0.01
				neo_socialism_drift = -0.01
				liberalism_drift = -0.01
				social_democracy_drift = -0.01
			}
			
		}
		
		FRA_redistribution_program = {
			
			allowed = {
				always = no
			}
			
			picture = risk_of_famine
			
			modifier = {
				marxism_leninism_drift = 0.01
				neo_socialism_drift = 0.04
				liberalism_drift = 0.01
				social_democracy_drift = 0.01
			}
			
		}
		
		FRA_political_shifts_idea = {
			
			allowed = {
				always = no
			}
			
			picture = victors_of_ww1
			
			modifier = {
				political_power_gain = 0.3
				neo_socialism_drift = 0.03
			}
			
		}
		
		FRA_continental_industrial_reforms_idea = {
			
			allowed = {
				always = no
			}
			
			picture = EU_member3
			
			modifier = {
				production_speed_arms_factory_factor = 0.05
				production_speed_industrial_complex_factor = 0.05
				production_speed_naval_base_factor = 0.05
			}
			
		}
	
	}
	
}