ideas = {

	country = {
	
		idea_JAP_emperor_akihito = {
		
			picture = emperor_akihito
			
			allowed = {
				original_tag = JAP
			}
			
			modifier = {
				stability_factor = 0.1
			}
			
		}
		
		JAP_democratic_interventionism = {
		
			picture = volunteer_expedition_bonus
			
			allowed = {
				always = no
			}
			modifier = {
				stability_factor = 0.05
				drift_defence_factor = 0.05
				justify_war_goal_time = -0.1
				conscription_factor = 0.1
			}
		}
		
		JAP_democratic_militia = {
		
			picture = manpower_bonus
			
			allowed = {
				always = no
			}
			modifier = {
				conscription_factor = 0.25
			}
		}
		
		JAP_fortress_japan_idea = {
		
			picture = fortification2
			
			allowed = {
				always = no
			}
			modifier = {
				conscription_factor = 0.1
				drift_defence_factor = 0.1
				army_morale_factor = 0.1
				stability_weekly = 0.001
				production_speed_bunker_factor = 0.25
				production_speed_coastal_bunker_factor = 0.25
			}
		}
		
		JAP_imperial_allegiance = {
		
			picture = imperial_glory
			
			allowed = {
				always = no
			}
			modifier = {
				monarchism_drift = 0.1
			}
		}
		
		JAP_protect_our_ideology = {
		
			picture = national_mobilization
			
			allowed = {
				always = no
			}
			modifier = {
				stability_weekly = 0.001
				drift_defence_factor = 0.25
			}
		}
		
		JAP_vanguards_of_democracy = {
		
			picture = morale_bonus
			
			allowed = {
				always = no
			}
			modifier = {
				army_morale_factor = 0.15
			}
		}
	
		japanese_article_9 = {
		
			picture = japanese_article_9
			
			allowed = {
				always = no
			}
			modifier = {
				stability_factor = 0.15
				drift_defence_factor = 0.05
				justify_war_goal_time = 10
				conscription_factor = -0.5
			}
		}
	
		japanese_article_9_adapted = {
		
			picture = japanese_article_9
			
			allowed = {
				always = no
			}
			modifier = {
				stability_factor = 0.05
				justify_war_goal_time = 0.5
				conscription_factor = -0.3
			}
		}
	
		japanese_supremacy = {
		
			picture = warrior_traditions
			
			allowed = {
				always = no
			}
			modifier = {
				autocracy_drift = 0.1
				justify_war_goal_time = -0.05
			}
		}
	
	}
	
}