
strategic_region={
	id=255
	name="STRATEGICREGION_255"
	provinces={
		327 530 3272 3288 3320 3337 3354 6229 6281 6296 6314 6360 6376 6407 9246 9274 9295 9357 9374 9404 9438 9483 9499 9731 11226 11312 11342 11498 
	}
	weather={
	}
}
