
state=
{
	id=106
	name="STATE_106"
	
	resources = 
	{
		steel = 1
	}
	
	history=
	{
		owner = YUG
		add_core_of = YUG
		add_core_of = MAC

		buildings = 
		{
			infrastructure = 7
			industrial_complex = 3
			arms_factory = 1
			air_base = 2
		}
		victory_points = { 3882 5 }
	}

	provinces=
	{
		833 867 907 974 3833 3865 3882 6886 11856 
	}

	manpower=1910200
	buildings_max_level_factor=1.000
	state_category = state_level_8
}
