
state=
{
	id=107
	name="STATE_107"
	
	resources = 
	{
		steel=2
	}

	history=
	{
		owner = YUG
		add_core_of = YUG
		add_core_of = SER

		buildings = 
		{
			infrastructure = 6
			industrial_complex = 2
			arms_factory = 2
			air_base = 5
		}

		victory_points = { 11586 20 }	#Belgrade
		victory_points = { 11583 2 }	#Kragujevac
		

	}

	provinces={
		614 797 3609 3614 3956 3984 6634 9599 11580 11583 11586 
	}
	manpower=5564700
	buildings_max_level_factor=1.000
	state_category = state_level_12
}
