
state=
{
	id=109
	name="STATE_109"

	history=
	{
		owner = YUG
		add_core_of = YUG
		add_core_of = CRO
		
		buildings = 
		{
			infrastructure = 6
			industrial_complex = 1
			air_base = 2
		}
		victory_points = { 11581 20 }	#Zagreb
	}

	provinces=
	{
		6672 624 3592 3596 3627 6647 9595 9608 9611 11577 11581 11594 13258
	}
	
	manpower=2224400
	buildings_max_level_factor=1.000
	state_category = state_level_10
}
