
state={
	id=188
	name="STATE_188"

	history={
		owner = SOV
		add_core_of = LIT
		buildings = {
			infrastructure = 5
			industrial_complex = 1
			3288 = { bunker = 1 }
			3288 = { naval_base = 6 }
		}
		victory_points = { 3288 1 }
	}

	provinces={
		3288 
	}
	manpower=252000
	buildings_max_level_factor=1.000
	state_category = state_level_5
}
