
state={
	id=189
	name="STATE_189"
	resources={
		oil=1.000
	}

	history={
		owner = SOV
		add_core_of = LIT
		victory_points = {
			9483 1 
		}
		buildings = {
			infrastructure = 5
			industrial_complex = 1
			arms_factory = 1
			dockyard = 1
			6314 = { naval_base = 1 }
			6407 = { bunker = 1 }
			11312 = { bunker = 1 }
		}
	}

	provinces={
		3337 3354 6229 6314 6360 6376 6407 9483 9499 9731 11312 
	}
	manpower=1226000
	buildings_max_level_factor=1.000
	state_category = state_level_5
}
