
state={
	id=191
	name="STATE_191"

	history={
		owner = SOV
		add_core_of = EST
		victory_points = { 9221 1 }
		buildings = {
			infrastructure = 3
			industrial_complex = 1
			592 = { bunker = 2 }
		}
	}

	provinces={
		592 6099 6178 6408 9221 9485 13127 
	}
	manpower=476400
	buildings_max_level_factor=1.000
	state_category = state_level_5
}
