
state={
	id=193
	name="STATE_193" # Chernihiv
	manpower = 1373637
	
	state_category = state_level_10
	
	resources = {
		steel = 65
	}
	
	resources = {
		oil=2
	}

	history={
		owner = SOV
		add_core_of = SOV
		buildings = {
			infrastructure = 5
			air_base = 2
		}
		add_core_of = UKR
	}

	provinces={
		238 546 3480 3542 3568 3584 6458 6508 6532 6589 9437 9506 11425 11489 
	}
}
