
state={
	id=196
	name="STATE_196"
	manpower = 728363
	
	state_category = state_level_5

	history={
		owner = SOV
		add_core_of = SOV
		buildings = {
			infrastructure = 3
			air_base = 1
		}
		add_core_of = UKR
	}

	provinces={
		568 721 737 767 3573 6771 9712 11715 
	}
}
