
state={
	id=201
	name="STATE_201"
	manpower = 1417834
	
	state_category = state_level_5

	history={
		owner = SOV
		add_core_of = SOV
		buildings = {
			infrastructure = 3
			air_base = 1
		}
		add_core_of = UKR
	}

	provinces={
		441 550 3470 3570 6593 9466 9493 9533 11464 11477 11490 11514 
	}
}
