
state={
	id=209
	name="STATE_209" # Pskov
	manpower = 639587
	
	state_category = state_level_7

	history={
		owner = SOV
		add_core_of = SOV
		add_core_of = RUS
		victory_points = {
			11202 3
		}
		buildings = {
			infrastructure = 6
			air_base = 4
		}
	}

	provinces={
		95 415 3053 3310 6324 9120 9319 9408 11097 11202 11304 11392 
	}
}
