
state={
	id=223
	name="STATE_223"
	manpower = 1935549
	
	state_category = state_level_7

	history={
		owner = SOV
		add_core_of = SOV
		add_core_of = RUS
		victory_points = {
			6262 3 
		}
		buildings = {
			infrastructure = 5
			air_base = 1
		}
	}

	provinces={
		212 261 300 3236 3250 3292 3376 6262 6315 6333 6396 9366 11242 11347 
	}
}
