
state={
	id=224
	name="STATE_224"
	manpower = 4017567
	
	state_category = state_level_7

	history={
		owner = SOV
		add_core_of = SOV
		add_core_of = RUS
		victory_points = {
			3335 10
		}
		buildings = {
			infrastructure = 5
			air_base = 2
			industrial_complex = 2
			arms_factory = 1
		}
	}

	provinces={
		288 315 343 371 398 3226 3306 3335 3364 3390 6305 6330 6386 6411 11229 11298 11325 
	}
}
