
state={
	id=225
	name="STATE_225" # Sumy
	manpower = 1338280
	
	state_category = state_level_2
	
	resources = {
		oil=2
		steel = 6
	}

	history={
		owner = SOV
		add_core_of = SOV
		buildings = {
			infrastructure = 2
		}
		add_core_of = UKR
	}

	provinces={
		463 501 522 3225 3455 3520 6565 9477 9566 11462 11553 
	}
}
