
state={
	id=229
	name="STATE_229"
	resources={
		oil=82
	}

	history={
		owner = SOV
		add_core_of = SOV
		add_core_of = AZR
		victory_points = {
			7661 5 
		}
		buildings = {
			infrastructure = 4
			industrial_complex = 3
			arms_factory = 2
			air_base = 2
		}
	}

	provinces={
		1536 1610 4458 4477 4545 4614 7495 7661 11704 
	}
	manpower=7481049
	buildings_max_level_factor=1.000
	state_category = state_level_8
}
