
state={
	id=232
	name="STATE_232"
	
	resources={
		oil=35
		steel=3
	}

	history={
		owner = SOV
		add_core_of = SOV
		add_core_of = RUS
		buildings = {
			infrastructure = 4

		}
		victory_points = {
			3672 5 
		}

	}

	provinces={
		700 712 728 1450 3668 3682 3711 4463 6689 6701 6730 6748 7554 7624 9645 
	}
	manpower=1958292
	buildings_max_level_factor=1.000
	state_category = state_level_5
}
