
state={
	id=233
	name="STATE_233"
	
	resources = {
		steel = 4
	}

	history={
		owner = SOV
		add_core_of = SOV
		add_core_of = RUS
		buildings = {
			infrastructure = 3
		}

	}

	provinces={
		685 3698 6674 6692 6721 9628 9632 9647 9649 9663 9674 11609 11614 11664 
	}
	manpower=1463970
	buildings_max_level_factor=1.000
	state_category = state_level_5
}
