
state={
	id=247
	name="STATE_247"
	manpower = 1431211
	state_category = state_level_7
	
	resources = {
		steel = 12
	}

	history={
		owner = SOV
		add_core_of = SOV
		add_core_of = RUS
		victory_points = {
			6245 10 
		}
		buildings = {
			infrastructure = 5
			air_base = 2
		}
	}

	provinces={
		85 150 344 3143 3176 3323 6022 6122 6203 6245 6346 9046 9144 9256 11084 11154 11250 
	}
}
