
state={
	id=408
	name="STATE_408"
	manpower = 2081970
	
	state_category = state_level_10
	
	resources = {
		steel = 62
	}

	history={
		owner = SOV
		add_core_of = SOV
		add_core_of = RUS
		victory_points = {
			957 20
		}
		buildings = {
			infrastructure = 8
			air_base = 5
			dockyard = 1
			industrial_complex = 4
			arms_factory = 1
			957 = {
				naval_base = 8
			}
		}
	}

	provinces={
		664 681 837 957 3695 3723 3739 3753 3787 3811 3977 6684 6686 6715 6833 6838 6961 6989 9639 9641 9762 9895 9926 11624 11626 11629 11643 11745 11750 11765 11777 11879 11904 810 3843 
	}
}
