
state={
	id=52
	name="STATE_52"
	manpower = 6679413
	
	state_category = state_level_15
	
	resources = {
		steel = 22
	}

	history={
		owner = GER
		buildings = {
			infrastructure = 7
			industrial_complex = 5
			arms_factory = 2
			air_base = 8
		}
		add_core_of = GER
		add_core_of = BAV
		add_core_of = DDR
		victory_points = { 692 25 }		#Munich
		victory_points = { 708 3 }		#Augsburg
	}

	provinces={
		692 707 708 3688 3705 6540 6693 9652 9666 11620 11638 11653 
	}
}
