
state={
	id=564
	name="STATE_564" # Ulan Ude
	manpower = 370893
	state_category = state_level_2
	
	history={
		owner = SOV
		add_core_of = SOV
		add_core_of = RUS
		buildings = {
			infrastructure = 4

		}
	}

	provinces={
		1696 4705 4766 4837 7751 7816 7835 7860 10528 10658 12507 12644 
	}
}
