
state={
	id=571
	name="STATE_571" # Omsk
	manpower = 1317157
	
	state_category = state_level_5
	
	resources = {
		steel = 6
	}
	
	history={
		owner = SOV
		add_core_of = SOV
		add_core_of = RUS
		buildings = {
			infrastructure = 4
			industrial_complex = 1
		}
		victory_points = {
			10696 3 
		}
	}

	provinces={
		1709 1800 1835 4700 7800 10568 10626 10696 12546 12580 12652 
	}
}
