
state={
	id=586
	name="STATE_586"
	
	history={
		owner = SOV
		add_core_of = SOV
		buildings = {
			infrastructure = 3
			industrial_complex = 3
			arms_factory = 1
		}
		add_core_of = KYR
		victory_points = { 7706 3 }
		victory_points = { 1591 1 }
	}

	provinces={
		1591 1825 4224 7706 12583 12640 13147 
	}
	manpower=3873000
	buildings_max_level_factor=1.000
	state_category = state_level_10
}
