
state={
	id=637
	name="STATE_637"
	

	history={
		owner = SOV
		add_core_of = SOV
		add_core_of = RUS
		buildings = {
			infrastructure = 2
			air_base = 1
			12207 = {
				naval_base = 1
			}

		}

	}

	provinces={
		1823 1839 1863 4728 7878 12207 12522 
	}
	manpower=48831
	buildings_max_level_factor=1
	state_category = state_level_0
}
