
state={
	id=655
	name="STATE_655"
	manpower = 232492
	
	state_category = state_level_2
	
	resources = {
		oil=100
	}
	
	history={
		owner = SOV
		add_core_of = SOV
		add_core_of = RUS
		buildings = {
			infrastructure = 3
			air_base = 1
		}
	}

	provinces={
		855 1742 1755 
	}
}
