
state={
	id=664
	name="STATE_664"
	
	resources = {
		steel = 9
	}

	history={
		owner = CZE
		add_core_of = CZE
		add_core_of = SLO
		buildings = {
			infrastructure = 6
			industrial_complex = 1
			air_base = 1
		}
		victory_points = { 6573 1 }
	}

	provinces={
		3565 3716 6561 6573 9537 11679 
	}
	manpower=854300
	buildings_max_level_factor=1.000
	state_category = state_level_5
}
