state={
	id=729
	name="STATE_729"
	manpower = 649100
	
	state_category = state_level_10
	
	history={
		owner = POR
		add_core_of = PRC
		add_core_of = CHI
		add_core_of = MCU
		victory_points = {
			4189 5
		}
		buildings = {
			infrastructure = 9
			industrial_complex = 4
			arms_factory = 1
			air_base = 1
			4189 = {
				naval_base = 1
			}
		}
	}
	
	provinces={
		4189 
	}
}
