
state={
	id=96
	name="STATE_96"

	history={
		owner = SOV
		add_core_of = LIT
		victory_points = {
			3320 12 
		}
		buildings = {
			infrastructure = 6
			industrial_complex = 1
			air_base = 3

		}

	}

	provinces={
		327 3320 6281 9274 9295 
	}
	manpower=992000
	buildings_max_level_factor=1.000
	state_category = state_level_10
}
