focus_tree = {
	
	id = united_kingdom_focus
	
	country = {
		factor = 0
		
		#modifier = {
		#	add = 20
		#	original_tag = ENG
		#}
	}
	
	@economic_tree_head = 2
	@vitalize_westminster_head = 6
	@political_reform_head = 10
	
	@democratic_tradition_head = 22
	@future_for_britain_head = 27
	@pick_a_new_path_head = 32
	
	@economic_tree_very_far_left = 0
	@economic_tree_far_left = 1
	@economic_tree_left = 2
	@economic_tree_center = 3
	@economic_tree_right = 4
	@economic_tree_far_right = 5
	@economic_tree_very_far_right = 6
	
	@home_ministry_tree_left = 7
	@home_ministry_tree_center = 8
	@home_ministry_tree_right = 9
	
	@foreign_ministry_tree_far_left = 11
	@foreign_ministry_tree_left = 12
	@foreign_ministry_tree_center = 13
	@foreign_ministry_tree_right = 14
	@foreign_ministry_tree_far_right = 15
	
	@europe_tree_left = 17
	@europe_tree_center = 18
	@europe_tree_right = 19
	@europe_tree_right_plus_one = 20
	
	@careful_tree_left = 21
	@careful_tree_center = 22
	@careful_tree_right = 23
	
	@brexit_focus = 24
	@brexit_focus_plus_one = 25
	
	@europhobia_tree_left = 25
	@europhobia_tree_center = 26
	@europhobia_tree_right = 27
	
	@to_the_left_tree_left = 28
	@to_the_left_tree_center = 29
	@to_the_left_tree_right = 30
	@to_the_right_tree_very_far_left = 32
	@to_the_right_tree_far_left = 33
	@to_the_right_tree_left = 34
	@to_the_right_tree_center = 35
	@to_the_right_tree_right = 36
	@to_the_right_tree_far_right = 37
	@to_the_right_tree_very_far_right = 38
	@to_the_right_tree_very_far_right_plus_one = 39
	@to_the_right_tree_very_far_right_plus_two = 40
	
	@military_head = 46
	@army_tree_head = 44
	@navy_tree_head = 48
	
	@army_tree_far_left = 40
	@army_tree_left = 41
	@army_tree_center = 42
	@army_tree_right = 43
	@army_air_between = 44
	@air_tree_left = 45
	@air_tree_center = 46
	@air_tree_right = 47
	@air_navy_between = 48
	@navy_tree_left = 49
	@navy_tree_center = 50
	@navy_tree_right = 51
	@navy_tree_far_right = 52
	
	focus = {
		id = ENG_vitalize_westminster
		icon = demand_territory2
		x = @vitalize_westminster_head
		y = 0
		cost = 10
		
		completion_reward = {
			add_political_power = 50
			add_popularity = {
				ideology = liberalism
				popularity = 0.03
			}
			add_popularity = {
				ideology = oligarchy
				popularity = 0.03
			}
		}
		
		ai_will_do = {
			factor = 10
		}
	}
	
	focus = {
		id = ENG_the_future_of_britain
		icon = propaganda
		x = @future_for_britain_head
		y = 0
		cost = 10
		
		completion_reward = {
			add_political_power = 50
		}
		
		ai_will_do = {
			factor = 10
		}
	}
	
	focus = {
		id = ENG_british_armed_forces
		icon = army_logistics
		x = @military_head
		y = 0
		cost = 10
		
		completion_reward = {
			army_experience = 5
			navy_experience = 5
		}
		
		ai_will_do = {
			factor = 10
		}
	}
	
	focus = {
		id = ENG_economic_stimulus
		icon = consumer_goods
		x = @economic_tree_head
		y = 1
		cost = 10
		
		prerequisite = {
			focus = ENG_vitalize_westminster
		}
		
		completion_reward = {
			add_tech_bonus = {
				name = industrial_bonus
				bonus = 0.4
				uses = 1
				category = industry
			}
			add_popularity = {
				ideology = social_democracy
				popularity = 0.03
			}
		}
		
		ai_will_do = {
			factor = 10
		}
	}
	
	focus = {
		id = ENG_political_reform
		icon = demand_territory
		x = @political_reform_head
		y = 1
		cost = 10
		
		prerequisite = {
			focus = ENG_vitalize_westminster
		}
		
		completion_reward = {
			add_political_power = 50
		}
		
		ai_will_do = {
			factor = 10
		}
	}
	
	focus = {
		id = ENG_democratic_tradition
		icon = democracy
		x = @democratic_tradition_head
		y = 1
		cost = 10
		
		prerequisite = {
			focus = ENG_the_future_of_britain
		}
		
		mutually_exclusive = {
			focus = ENG_a_new_path
		}
		
		completion_reward = {
			add_popularity = {
				ideology = conservatism
				popularity = 0.05
			}
			add_popularity = {
				ideology = social_democracy
				popularity = 0.05
			}
		}
		
		ai_will_do = {
			factor = 10
		}
	}
	
	focus = {
		id = ENG_a_new_path
		icon = monarchy
		x = @pick_a_new_path_head
		y = 1
		cost = 10
		
		prerequisite = {
			focus = ENG_the_future_of_britain
		}
		
		mutually_exclusive = {
			focus = ENG_democratic_tradition
		}
		
		completion_reward = {
			add_popularity = {
				ideology = conservatism
				popularity = -0.05
			}
			add_popularity = {
				ideology = social_democracy
				popularity = -0.05
			}
		}
		
		ai_will_do = {
			factor = 10
			modifier = {
				factor = 0
				is_historical_focus_on = yes
			}
		}
	}
	
	focus = {
		id = ENG_focus_on_the_army
		icon = infantry_commonwealth
		x = @army_tree_head
		y = 1
		cost = 10
		
		prerequisite = {
			focus = ENG_british_armed_forces
		}
		
		mutually_exclusive = {
			focus = ENG_focus_on_the_navy
		}
		
		completion_reward = {
			army_experience = 20
		}
		
		ai_will_do = {
			factor = 10
		}
	}
	
	focus = {
		id = ENG_focus_on_the_navy
		icon = navy2
		x = @navy_tree_head
		y = 1
		cost = 10
		
		prerequisite = {
			focus = ENG_british_armed_forces
		}
		
		mutually_exclusive = {
			focus = ENG_focus_on_the_army
		}
		
		completion_reward = {
			navy_experience = 20
		}
		
		ai_will_do = {
			factor = 10
		}
	}
	
	focus = {
		id = ENG_english_industry
		icon = industry_civilian
		x = @economic_tree_very_far_left
		y = 2
		cost = 10
		
		prerequisite = {
			focus = ENG_economic_stimulus
		}
		
		completion_reward = {
			random_owned_state = {
				limit = {
					OR = {
						region = 1
						region = 2
					}
					free_building_slots = {
						building = industrial_complex
						size > 1
						include_locked = yes
					}
				}
				add_building_construction = {
					type = industrial_complex
					level = 2
					instant_build = yes
				}
				add_extra_state_shared_building_slots = 2
			}
			random_owned_state = {
				limit = {
					OR = {
						region = 1
						region = 2
					}
					free_building_slots = {
						building = industrial_complex
						size > 1
						include_locked = yes
					}
				}
				add_building_construction = {
					type = industrial_complex
					level = 2
					instant_build = yes
				}
				add_extra_state_shared_building_slots = 2
			}
		}
	}
	
	focus = {
		id = ENG_scottish_industry
		icon = industry_civilian
		x = @economic_tree_left
		y = 2
		cost = 10
		
		prerequisite = {
			focus = ENG_economic_stimulus
		}
		
		bypass = {
			NOT = { owns_state = 120 }
			NOT = { owns_state = 121 }
			NOT = { owns_state = 133 }
			NOT = { owns_state = 136 }
		}
		
		completion_reward = {
			random_owned_state = {
				limit = {
					region = 3
					free_building_slots = {
						building = industrial_complex
						size > 1
						include_locked = yes
					}
				}
				add_building_construction = {
					type = industrial_complex
					level = 2
					instant_build = yes
				}
				add_extra_state_shared_building_slots = 2
			}
			random_owned_state = {
				limit = {
					region = 3
					free_building_slots = {
						building = industrial_complex
						size > 0
						include_locked = yes
					}
				}
				add_building_construction = {
					type = industrial_complex
					level = 1
					instant_build = yes
				}
				add_extra_state_shared_building_slots = 1
			}
		}
	}
	
	focus = {
		id = ENG_imperial_industry
		icon = industry_civilian
		x = @economic_tree_right
		y = 2
		cost = 10
		
		prerequisite = {
			focus = ENG_economic_stimulus
		}
		
		completion_reward = {
			random_owned_state = {
				limit = {
					NOT = { region = 1 }
					NOT = { region = 2 }
					NOT = { region = 3 }
					NOT = { region = 4 }
					state_population > 3000
					free_building_slots = {
						building = industrial_complex
						size > 0
						include_locked = yes
					}
				}
				add_building_construction = {
					type = industrial_complex
					level = 1
					instant_build = yes
				}
				add_extra_state_shared_building_slots = 1
			}
		}
	}
	
	focus = {
		id = ENG_expand_the_home_ministry
		icon = anschluss
		x = @home_ministry_tree_center
		y = 2
		cost = 10
		
		prerequisite = {
			focus = ENG_political_reform
		}
		
		completion_reward = {
			add_political_power = 50
		}
		
		ai_will_do = {
			factor = 10
		}
	}
	
	focus = {
		id = ENG_expand_the_foreign_ministry
		icon = alliance
		x = @foreign_ministry_tree_center
		y = 2
		cost = 10
		
		prerequisite = {
			focus = ENG_political_reform
		}
		
		completion_reward = {
			add_political_power = 50
		}
		
		ai_will_do = {
			factor = 10
		}
	}
	
	focus = {
		id = ENG_the_future_of_the_NHS
		icon = production
		x = @foreign_ministry_tree_far_right
		y = 2
		cost = 10
		
		prerequisite = {
			focus = ENG_political_reform
		}
		
		completion_reward = {
			country_event = britain.2
		}
		
		ai_will_do = {
			factor = 10
		}
	}
	
	focus = {
		id = ENG_europe_is_the_future
		icon = align_to_europe
		x = @europe_tree_center
		y = 2
		cost = 10
		
		prerequisite = {
			focus = ENG_democratic_tradition
		}
		
		mutually_exclusive = {
			focus = ENG_careful_cooperation
		}
		mutually_exclusive = {
			focus = ENG_distance_from_europe
		}
		
		available = {
			has_idea = idea_eu_member
		}
		
		completion_reward = {
			increase_social_democracy_influence_by_1 = yes
			increase_liberalism_influence_by_1 = yes
			add_political_power = 25
			add_popularity = {
				popularity = 0.05
				ideology = social_democracy
			}
		}
		
		ai_will_do = {
			factor = 10
			modifier = {
				factor = 0
				is_historical_focus_on = yes
			}
		}
	}
	
	focus = {
		id = ENG_careful_cooperation
		icon = molotov_ribbentrop_pact
		x = @careful_tree_center
		y = 2
		cost = 10
		
		prerequisite = {
			focus = ENG_democratic_tradition
		}
		
		mutually_exclusive = {
			focus = ENG_europe_is_the_future
		}
		mutually_exclusive = {
			focus = ENG_distance_from_europe
		}
		
		completion_reward = {
			increase_conservatism_influence_by_1 = yes
			add_political_power = 25
			add_popularity = {
				popularity = 0.05
				ideology = conservatism
			}
		}
		
		ai_will_do = {
			factor = 10
		}
	}
	
	focus = {
		id = ENG_distance_from_europe
		icon = align_to_britain
		x = @europhobia_tree_center
		y = 2
		cost = 10
		
		prerequisite = {
			focus = ENG_democratic_tradition
		}
		
		mutually_exclusive = {
			focus = ENG_europe_is_the_future
		}
		mutually_exclusive = {
			focus = ENG_careful_cooperation
		}
		
		completion_reward = {
			increase_oligarchy_influence_by_1 = yes
			add_political_power = 50
			add_popularity = {
				popularity = 0.05
				ideology = oligarchy
			}
		}
		
		ai_will_do = {
			factor = 10
			modifier = {
				factor = 0
				is_historical_focus_on = yes
			}
		}
	}
	
	focus = {
		id = ENG_towards_the_left
		icon = communism
		x = @to_the_left_tree_center
		y = 2
		cost = 10
		
		prerequisite = {
			focus = ENG_a_new_path
		}
		
		mutually_exclusive = {
			focus = ENG_towards_the_right
		}
		
		completion_reward = {
			increase_marxism_leninism_influence_by_2 = yes
			news_event = news.59
			add_popularity = {
				ideology = social_democracy
				popularity = 0.03
			}
			add_popularity = {
				ideology = neo_socialism
				popularity = 0.05
			}
			add_popularity = {
				ideology = marxism_leninism
				popularity = 0.05
			}
		}
		
		ai_will_do = {
			factor = 10
		}
	}
	
	focus = {
		id = ENG_towards_the_right
		icon = fascism
		x = @to_the_right_tree_center
		y = 2
		cost = 10
		
		prerequisite = {
			focus = ENG_a_new_path
		}
		
		mutually_exclusive = {
			focus = ENG_towards_the_left
		}
		
		completion_reward = {
			increase_nationalism_influence_by_1 = yes
			increase_autocracy_influence_by_1 = yes
			increase_monarchism_influence_by_1 = yes
			news_event = news.60
			add_popularity = {
				ideology = conservatism
				popularity = 0.02
			}
			add_popularity = {
				ideology = oligarchy
				popularity = 0.02
			}
			add_popularity = {
				ideology = monarchism
				popularity = 0.03
			}
			add_popularity = {
				ideology = nationalism
				popularity = 0.03
			}
			add_popularity = {
				ideology = autocracy
				popularity = 0.01
			}
		}
		
		ai_will_do = {
			factor = 10
		}
	}
	
	focus = {
		id = ENG_industry_in_manchester
		icon = industry_military
		x = @army_tree_far_left
		y = 2
		cost = 10
		
		prerequisite = {
			focus = ENG_focus_on_the_army
		}
		
		bypass = {
			132 = {
				free_building_slots = {
					building = arms_factory
					size < 2
					include_locked = yes
				}
			}
		}
		
		completion_reward = {
			132 = {
				add_building_construction = {
					type = arms_factory
					level = 2
					instant_build = yes
				}
				add_extra_state_shared_building_slots = 2
			}
		}
		
		ai_will_do = {
			factor = 10
		}
	}
	
	focus = {
		id = ENG_army_training
		icon = infantry_axis
		x = @army_tree_center
		y = 2
		cost = 10
		
		prerequisite = {
			focus = ENG_focus_on_the_army
		}
		
		completion_reward = {
			army_experience = 15
		}
		
		ai_will_do = {
			factor = 10
		}
	}
	
	focus = {
		id = ENG_expand_the_air_force
		icon = airforce
		x = @air_tree_center
		y = 2
		cost = 10
		
		prerequisite = {
			focus = ENG_focus_on_the_army
			focus = ENG_focus_on_the_navy
		}
		
		completion_reward = {
			air_experience = 15
		}
		
		ai_will_do = {
			factor = 10
		}
	}
	
	focus = {
		id = ENG_naval_prototypes
		icon = navy
		x = @navy_tree_center
		y = 2
		cost = 10
		
		prerequisite = {
			focus = ENG_focus_on_the_navy
		}
		
		completion_reward = {
			navy_experience = 15
		}
		
		ai_will_do = {
			factor = 10
		}
	}
	
	focus = {
		id = ENG_industry_in_liverpool
		icon = naval_dockyards
		x = @navy_tree_far_right
		y = 2
		cost = 10
		
		prerequisite = {
			focus = ENG_focus_on_the_navy
		}
		
		bypass = {
			132 = {
				free_building_slots = {
					building = dockyard
					size < 2
					include_locked = yes
				}
			}
		}
		
		completion_reward = {
			132 = {
				add_building_construction = {
					type = dockyard
					level = 2
					instant_build = yes
				}
				add_extra_state_shared_building_slots = 2
			}
		}
		
		ai_will_do = {
			factor = 10
		}
	}
	
	focus = {
		id = ENG_dockyards_1
		icon = naval_dockyards
		x = @economic_tree_far_left
		y = 3
		cost = 10
		
		prerequisite = {
			focus = ENG_english_industry
			focus = ENG_scottish_industry
		}
		
		completion_reward = {
			navy_experience = 5
			random_owned_state = {
				limit = {
					OR = {
						region = 1
						region = 2
						region = 3
						region = 4
					}
					free_building_slots = {
						building = dockyard
						size > 0
						include_locked = yes
					}
				}
				add_building_construction = {
					type = dockyard
					level = 1
					instant_build = yes
				}
				add_extra_state_shared_building_slots = 1
			}
			random_owned_state = {
				limit = {
					OR = {
						region = 1
						region = 2
						region = 3
						region = 4
					}
					free_building_slots = {
						building = dockyard
						size > 0
						include_locked = yes
					}
				}
				add_building_construction = {
					type = dockyard
					level = 1
					instant_build = yes
				}
				add_extra_state_shared_building_slots = 1
			}
		}
		
		ai_will_do = {
			factor = 10
		}
	}
	
	focus = {
		id = ENG_north_sea_oil
		icon = oil_production
		x = @economic_tree_center
		y = 3
		cost = 10
		
		prerequisite = {
			focus = ENG_scottish_industry
		}
		
		completion_reward = {
			if = {
				limit = {
					OR = {
						owns_state = 136
						any_country = {
							is_puppet_of = ENG
							owns_state = 136
						}
					}
				}
				add_resource = {	#Aberdeenshire 
					type = oil 
					amount = 11
					state = 136
				}
			}
			if = {
				limit = {
					OR = {
						owns_state = 121
						any_country = {
							is_puppet_of = ENG
							owns_state = 121
						}
					}
				}
				add_resource = { 	#Lothian
					type = oil 
					amount = 20
					state = 121
				}
			}
			if = {
				limit = {
					OR = {
						owns_state = 131
						any_country = {
							is_puppet_of = ENG
							owns_state = 131
						}
					}
				}
				add_resource = {	#Northern England
					type = oil 
					amount = 11
					state = 131
				}
			}
		}
		
		ai_will_do = {
			factor = 10
		}
	}
	
	focus = {
		id = ENG_imperial_dockyards
		icon = naval_dockyards
		x = @economic_tree_far_right
		y = 3
		cost = 10
		
		prerequisite = {
			focus = ENG_imperial_industry
		}
		
		completion_reward = {
			navy_experience = 5
			random_owned_state = {
				limit = {
					NOT = {
						OR = {
							region = 1
							region = 2
							region = 3
							region = 4
						}
					}
					free_building_slots = {
						building = dockyard
						size > 0
						include_locked = yes
					}
				}
				add_building_construction = {
					type = dockyard
					level = 1
					instant_build = yes
				}
				add_extra_state_shared_building_slots = 1
			}
		}
		
		ai_will_do = {
			factor = 10
		}
	}
	
	focus = {
		id = ENG_freedom_first
		icon = democracy
		x = @home_ministry_tree_left
		y = 3
		cost = 10
		
		prerequisite = {
			focus = ENG_expand_the_home_ministry
		}
		
		mutually_exclusive = {
			focus = ENG_security_first
		}
		
		completion_reward = {
			add_war_support = 0.05
			add_popularity = {
				ideology = liberalism
				popularity = 0.02
			}
		}
		
		ai_will_do = {
			factor = 10
			modifier = {
				factor = 0
				is_historical_focus_on = yes
			}
		}
	}
	
	focus = {
		id = ENG_security_first
		icon = neutrality
		x = @home_ministry_tree_right
		y = 3
		cost = 10
		
		prerequisite = {
			focus = ENG_expand_the_home_ministry
		}
		
		mutually_exclusive = {
			focus = ENG_freedom_first
		}
		
		completion_reward = {
			add_political_power = 75
			add_popularity = {
				ideology = conservatism
				popularity = 0.02
			}
		}
		
		ai_will_do = {
			factor = 10
		}
	}
	
	focus = {
		id = ENG_go_with_europe
		icon = align_to_europe
		x = @foreign_ministry_tree_far_left
		y = 3
		cost = 10
		
		prerequisite = {
			focus = ENG_expand_the_foreign_ministry
		}
		
		mutually_exclusive = {
			focus = ENG_go_with_the_commonwealth
		}
		mutually_exclusive = {
			focus = ENG_britain_first
		}
		
		completion_reward = {
			every_country = {
				limit = {
					OR = {
						tag = ENG
						tag = USA
						has_idea = idea_eu_member
						has_idea = commonwealth_of_nations_member
						is_in_faction_with = ENG
					}
				}
				news_event = news.55
			}
		}
		
		ai_will_do = {
			factor = 10
		}
	}
	
	focus = {
		id = ENG_go_with_the_commonwealth
		icon = infantry_commonwealth
		x = @foreign_ministry_tree_center
		y = 3
		cost = 10
		
		prerequisite = {
			focus = ENG_expand_the_foreign_ministry
		}
		
		mutually_exclusive = {
			focus = ENG_go_with_europe
		}
		mutually_exclusive = {
			focus = ENG_britain_first
		}
		
		completion_reward = {
			every_country = {
				limit = {
					OR = {
						tag = ENG
						tag = USA
						has_idea = idea_eu_member
						has_idea = commonwealth_of_nations_member
						is_in_faction_with = ENG
					}
				}
				news_event = news.56
			}
		}
		
		ai_will_do = {
			factor = 10
			modifier = {
				factor = 0
				is_historical_focus_on = yes
			}
		}
	}
	
	focus = {
		id = ENG_britain_first
		icon = align_to_britain
		x = @foreign_ministry_tree_far_right
		y = 3
		cost = 10
		
		prerequisite = {
			focus = ENG_expand_the_foreign_ministry
		}
		
		mutually_exclusive = {
			focus = ENG_go_with_europe
		}
		mutually_exclusive = {
			focus = ENG_go_with_the_commonwealth
		}
		
		completion_reward = {
			add_political_power = 20
			every_country = {
				limit = {
					OR = {
						tag = ENG
						tag = USA
						has_idea = idea_eu_member
						has_idea = commonwealth_of_nations_member
						is_in_faction_with = ENG
					}
				}
				news_event = news.57
			}
		}
		
		ai_will_do = {
			factor = 10
			modifier = {
				factor = 0
				is_historical_focus_on = yes
			}
		}
	}
	
	focus = {
		id = ENG_european_cooperation_1
		icon = major_alliance
		x = @europe_tree_center
		y = 3
		cost = 10
		
		prerequisite = {
			focus = ENG_europe_is_the_future
		}
		
		available = {
			has_idea = idea_eu_member
		}
		
		completion_reward = {
			random_country = {
				limit = {
					NOT = { tag = GER }
					NOT = { tag = ENG }
					NOT = { tag = FRA }
					NOT = { tag = ITA }
					NOT = { has_country_flag = ENG_european_cooperation_received }
					has_idea = idea_eu_member
				}
				country_event = { id = european_union.6 } 
				set_country_flag = ENG_european_cooperation_received
			}
			random_country = {
				limit = {
					NOT = { tag = GER }
					NOT = { tag = ENG }
					NOT = { tag = FRA }
					NOT = { tag = ITA }
					NOT = { has_country_flag = ENG_european_cooperation_received }
					has_idea = idea_eu_member
				}
				country_event = { id = european_union.6 } 
				set_country_flag = ENG_european_cooperation_received
			}
			random_country = {
				limit = {
					NOT = { tag = GER }
					NOT = { tag = ENG }
					NOT = { tag = FRA }
					NOT = { tag = ITA }
					NOT = { has_country_flag = ENG_european_cooperation_received }
					has_idea = idea_eu_member
				}
				country_event = { id = european_union.6 } 
				set_country_flag = ENG_european_cooperation_received
			}
			random_country = {
				limit = {
					NOT = { tag = GER }
					NOT = { tag = ENG }
					NOT = { tag = FRA }
					NOT = { tag = ITA }
					NOT = { has_country_flag = ENG_european_cooperation_received }
					has_idea = idea_eu_member
				}
				country_event = { id = european_union.6 } 
				set_country_flag = ENG_european_cooperation_received
			}
			random_country = {
				limit = {
					NOT = { tag = GER }
					NOT = { tag = ENG }
					NOT = { tag = FRA }
					NOT = { tag = ITA }
					NOT = { has_country_flag = ENG_european_cooperation_received }
					has_idea = idea_eu_member
				}
				country_event = { id = european_union.6 } 
				set_country_flag = ENG_european_cooperation_received
			}
		}
		
		ai_will_do = {
			factor = 10
		}
	}
	
	focus = {
		id = ENG_special_treatment
		icon = intelligence_exchange
		x = @careful_tree_left
		y = 3
		cost = 10
		
		prerequisite = {
			focus = ENG_careful_cooperation
		}
		
		completion_reward = {
			add_political_power = 150
			every_country = {
				limit = {
					NOT = { tag = ENG }
					has_idea = idea_eu_member
				}
				country_event = britain.3
				add_opinion_modifier = {
					target = ENG
					modifier = has_demanded_special_treatment
				}
			}
		}
		
		ai_will_do = {
			factor = 10
		}
	}
	
	focus = {
		id = ENG_brexit_referendum
		icon = diplomatic_treaty
		x = @brexit_focus
		y = 3
		cost = 10
		
		prerequisite = {
			focus = ENG_careful_cooperation
			focus = ENG_distance_from_europe
		}
		
		bypass = {
			has_country_flag = brexit_referendum
		}
		
		available = {
			NOT = { has_completed_focus = ENG_union_of_nations }
			OR = {
				has_completed_focus = ENG_distance_from_europe
				oligarchy > 0.15
			}
		}
		
		completion_reward = {
			set_country_flag = brexit_referendum
			country_event = britain.4
		}
		
		ai_will_do = {
			factor = 10
		}
	}
	
	focus = {
		id = ENG_new_diplomatic_initiatives
		icon = national_unity
		x = @europhobia_tree_center
		y = 3
		cost = 10
		
		prerequisite = {
			focus = ENG_distance_from_europe
		}
		
		completion_reward = {
			add_war_support = 0.05
			add_political_power = 25
		}
		
		ai_will_do = {
			factor = 10
		}
	}
	
	focus = {
		id = ENG_abolish_the_monarchy
		icon = communism2
		x = @to_the_left_tree_center
		y = 3
		cost = 10
		
		prerequisite = {
			focus = ENG_towards_the_left
		}
		
		completion_reward = {
			country_event = britain.5
		}
		
		ai_will_do = {
			factor = 10
		}
	}
	
	focus = {
		id = ENG_empower_the_throne
		icon = monarchy
		x = @to_the_right_tree_far_left
		y = 3
		cost = 10
		
		prerequisite = {
			focus = ENG_towards_the_right
		}
		
		mutually_exclusive = {
			focus = ENG_empower_the_government
		}
		
		completion_reward = {
			add_political_power = 25
			add_popularity = {
				ideology = monarchism
				popularity = 0.2
			}
			set_country_flag = elizabeth_abdicates_monarchism
			if = {
				limit = { has_idea = ENG_queen_elizabeth_2 }
				hidden_effect = {
					random_list = {
						80 = { }
						20 = { country_event = britain.6 }
					}
				}
			}
		}
		
		ai_will_do = {
			factor = 15
		}
	}
	
	focus = {
		id = ENG_empower_the_government
		icon = demand_territory2
		x = @to_the_right_tree_far_right
		y = 3
		cost = 10
		
		prerequisite = {
			focus = ENG_towards_the_right
		}
		
		mutually_exclusive = {
			focus = ENG_empower_the_throne
		}
		
		completion_reward = {
			add_political_power = 50
			set_country_flag = elizabeth_abdicates_nationalism
			if = {
				limit = { has_idea = ENG_queen_elizabeth_2 }
				hidden_effect = {
					random_list = {
						20 = { }
						80 = { country_event = britain.6 }
					}
				}
			}
		}
		
		ai_will_do = {
			factor = 5
		}
	}
	
	focus = {
		id = ENG_artillery_for_britain
		icon = artillery2
		x = @army_tree_left
		y = 3
		cost = 10
		
		prerequisite = {
			focus = ENG_army_training
		}
		
		completion_reward = {
			add_tech_bonus = {
				name = artillery_bonus
				bonus = 0.5
				uses = 2
				category = artillery
			}
		}
		
		ai_will_do = {
			factor = 10
		}	
	}
	
	focus = {
		id = ENG_tanks_for_britain
		icon = tank
		x = @army_tree_right
		y = 3
		cost = 10
		
		prerequisite = {
			focus = ENG_army_training
		}
		
		completion_reward = {
			add_tech_bonus = {
				name = armor_bonus
				bonus = 0.35
				uses = 3
				category = armor
			}
		}
		
		ai_will_do = {
			factor = 10
		}	
	}
	
	focus = {
		id = ENG_develop_our_fighters
		icon = fighter
		x = @air_tree_left
		y = 3
		cost = 10
		
		prerequisite = {
			focus = ENG_expand_the_air_force
		}
		
		completion_reward = {
			add_tech_bonus = {
				name = fighter_bonus
				bonus = 0.4
				uses = 2
				category = light_air
			}
		}
		
		ai_will_do = {
			factor = 10
		}	
	}
	
	focus = {
		id = ENG_develop_heavy_planes
		icon = bomber
		x = @air_tree_right
		y = 3
		cost = 10
		
		prerequisite = {
			focus = ENG_expand_the_air_force
		}
		
		completion_reward = {
			add_tech_bonus = {
				name = bomber_bonus
				bonus = 0.6
				uses = 1
				category = cat_strategic_bomber
			}
		}
		
		ai_will_do = {
			factor = 10
		}	
	}
	
	focus = {
		id = ENG_develop_submarines
		icon = submarines
		x = @navy_tree_left
		y = 3
		cost = 10
		
		prerequisite = {
			focus = ENG_naval_prototypes
		}
		
		completion_reward = {
			add_tech_bonus = {
				name = sub_bonus
				bonus = 0.25
				uses = 2
				category = ss_tech
			}
		}
		
		ai_will_do = {
			factor = 10
		}	
	}
	
	focus = {
		id = ENG_develop_carriers
		icon = carriers
		x = @navy_tree_right
		y = 3
		cost = 10
		
		prerequisite = {
			focus = ENG_naval_prototypes
		}
		
		completion_reward = {
			add_tech_bonus = {
				name = carrier_bonus
				bonus = 0.35
				uses = 3
				category = cv_tech
			}
		}
		
		ai_will_do = {
			factor = 10
		}	
	}
	
	focus = {
		id = ENG_dockyards_2
		icon = naval_dockyards
		x = @economic_tree_far_left
		y = 4
		cost = 10
		
		prerequisite = {
			focus = ENG_dockyards_1
		}
		
		completion_reward = {
			navy_experience = 10
			random_owned_state = {
				limit = {
					OR = {
						region = 1
						region = 2
						region = 3
						region = 4
					}
					free_building_slots = {
						building = dockyard
						size > 0
						include_locked = yes
					}
				}
				add_building_construction = {
					type = dockyard
					level = 1
					instant_build = yes
				}
				add_extra_state_shared_building_slots = 1
			}
			random_owned_state = {
				limit = {
					OR = {
						region = 1
						region = 2
						region = 3
						region = 4
					}
					free_building_slots = {
						building = dockyard
						size > 0
						include_locked = yes
					}
				}
				add_building_construction = {
					type = dockyard
					level = 1
					instant_build = yes
				}
				add_extra_state_shared_building_slots = 1
			}
		}
		
		ai_will_do = {
			factor = 10
		}	
	}
	
	focus = {
		id = ENG_fortify_the_empire
		icon = coastal_fort
		x = @economic_tree_far_right
		y = 4
		cost = 10
		
		prerequisite = {
			focus = ENG_imperial_dockyards
		}
		
		completion_reward = {
			#Gibraltar
			if = {
				limit = { 118 = { is_owned_by = ENG } }
				118 = {
					add_building_construction = {
						type = bunker
						province = 4135
						level = 2
						instant_build = yes
					}
					add_building_construction = {
						type = coastal_bunker
						province = 4135
						level = 2
						instant_build = yes
					}
				}
			}
			#Falklands
			if = {
				limit = { 299 = { is_owned_by = ENG } }
				299 = {
					add_building_construction = {
						type = coastal_bunker
						province = 12960
						level = 3
						instant_build = yes
					}
				}
			}
			#South Georgia
			if = {
				limit = { 720 = { is_owned_by = ENG } }
				720 = {
					add_building_construction = {
						type = coastal_bunker
						province = 10995
						level = 3
						instant_build = yes
					}
				}
			}
		}
		
		ai_will_do = {
			factor = 10
		}	
	}
	
	focus = {
		id = ENG_assure_individual_freedoms
		icon = industry_democratic
		x = @home_ministry_tree_left
		y = 4
		cost = 10
		
		prerequisite = {
			focus = ENG_freedom_first
		}
		
		completion_reward = {
			add_ideas = ENG_individual_freedoms
		}
		
		ai_will_do = {
			factor = 10
		}	
	}
	
	focus = {
		id = ENG_public_CCTV_systems
		icon = propaganda
		x = @home_ministry_tree_right
		y = 4
		cost = 10
		
		prerequisite = {
			focus = ENG_security_first
		}
		
		completion_reward = {
			add_ideas = ENG_CCTV_systems
		}
		
		ai_will_do = {
			factor = 10
		}	
	}
	
	focus = {
		id = ENG_strengthen_NATO
		icon = align_to_nato
		x = @foreign_ministry_tree_far_left
		y = 4
		cost = 10
		
		prerequisite = {
			focus = ENG_go_with_europe
		}
		
		available = {
			has_democratic_form_of_government = yes
		}
		
		completion_reward = {
			every_country = {
				limit = {
					is_in_faction_with = ENG
					has_democratic_form_of_government = yes
				}
				country_event = britain.7
			}
		}
		
		ai_will_do = {
			factor = 10
		}	
	}
	
	focus = {
		id = ENG_leave_NATO
		icon = dangerous_deal
		x = @foreign_ministry_tree_right
		y = 4
		cost = 10
		
		prerequisite = {
			focus = ENG_go_with_the_commonwealth
			focus = ENG_britain_first
		}
		
		bypass = {
			OR = {
				is_faction_leader = yes
				is_in_faction = no
			}
		}
		
		completion_reward = {
			random_country = {
				limit = {
					is_in_faction_with = ENG
					is_faction_leader = yes
				}
				remove_from_faction = ENG
				news_event = news.58
			}
		}
		
		ai_will_do = {
			factor = 10
		}	
	}
	
	focus = {
		id = ENG_european_logistics
		icon = intelligence_exchange
		x = @europe_tree_center
		y = 4
		cost = 15
		
		prerequisite = {
			focus = ENG_european_cooperation_1
		}
		
		completion_reward = {
			add_ideas = ENG_european_logistics_idea
		}
		
		ai_will_do = {
			factor = 10
		}	
	}
	
	focus = {
		id = ENG_defy_remain
		icon = diplomatic_treaty
		x = @brexit_focus_plus_one
		y = 4
		cost = 10
		
		prerequisite = {
			focus = ENG_brexit_referendum
		}
		prerequisite = {
			focus = ENG_distance_from_europe
		}
		
		bypass = {
			NOT = { has_idea = idea_eu_member }
		}
		
		available = {
			has_idea = idea_eu_member
			has_country_flag = brexit_referendum
			has_country_flag = brexit_referendum_remain
		}
		
		completion_reward = {
			increase_oligarchy_influence_by_2 = yes
			add_war_support = -0.3
			EU_membership_termination = yes
			news_event = news.61
		}
		
		ai_will_do = {
			factor = 10
		}	
	}
	
	focus = {
		id = ENG_investments_abroad_1
		icon = trade_deal
		x = @careful_tree_center
		y = 4
		cost = 10
		
		prerequisite = {
			focus = ENG_careful_cooperation
		}
		
		completion_reward = {
			add_political_power = 15
			every_country = {
				limit = {
					NOT = { tag = ENG }
					capital_scope = { is_on_continent = europe }
					has_similar_form_of_government = yes
				}
				country_event = britain.8
			}
		}
		
		ai_will_do = {
			factor = 10
		}	
	}
	
	focus = {
		id = ENG_national_development_1
		icon = construction3
		x = @europhobia_tree_right
		y = 4
		cost = 10
		
		prerequisite = {
			focus = ENG_distance_from_europe
		}
		
		completion_reward = {
			country_event = britain.9
		}
		
		ai_will_do = {
			factor = 10
		}	
	}
	
	focus = {
		id = ENG_fight_capitalism
		icon = communism4
		x = @to_the_left_tree_center
		y = 4
		cost = 10
		
		prerequisite = {
			focus = ENG_abolish_the_monarchy
		}
		
		completion_reward = {
			every_country = {
				limit = {
					OR = {
						is_in_faction_with = ENG
						has_idea = idea_eu_member
					}
					NOT = { has_government = marxism_leninism }
				}
				country_event = britain.10
			}
			add_popularity = {
				ideology = marxism_leninism
				popularity = 0.05
			}
			if = {
				limit = { has_idea = export_focus }
				add_ideas = limited_exports
			}
			if = {
				limit = { has_idea = free_trade }
				add_ideas = export_focus
			}
		}
		
		ai_will_do = {
			factor = 10
		}	
	}
	
	focus = {
		id = ENG_benevolent_monarchy
		icon = monarchy
		x = @to_the_right_tree_very_far_left
		y = 4
		cost = 10
		
		prerequisite = {
			focus = ENG_empower_the_throne
		}
		
		mutually_exclusive = {
			focus = ENG_imperialism
		}
		mutually_exclusive = {
			focus = ENG_nationalism
		}
		
		completion_reward = {
			increase_monarchism_influence_by_1 = yes
			add_ideas = ENG_benevolent_monarchy_idea
		}
		
		ai_will_do = {
			factor = 15
		}	
	}
	
	focus = {
		id = ENG_imperialism
		icon = territorial_claims
		x = @to_the_right_tree_center
		y = 4
		cost = 10
		
		prerequisite = {
			focus = ENG_empower_the_throne
			focus = ENG_empower_the_government
		}
		
		mutually_exclusive = {
			focus = ENG_benevolent_monarchy
		}
		mutually_exclusive = {
			focus = ENG_nationalism
		}
		
		completion_reward = {
			increase_monarchism_influence_by_1 = yes
			increase_nationalism_influence_by_1 = yes
			add_ideas = ENG_imperialistic_ambitions
		}
		
		ai_will_do = {
			factor = 10
		}	
	}
	
	focus = {
		id = ENG_nationalism
		icon = fascism2
		x = @to_the_right_tree_very_far_right
		y = 4
		cost = 10
		
		prerequisite = {
			focus = ENG_empower_the_government
		}
		
		mutually_exclusive = {
			focus = ENG_benevolent_monarchy
		}
		mutually_exclusive = {
			focus = ENG_imperialism
		}
		
		completion_reward = {
			increase_nationalism_influence_by_1 = yes
			increase_autocracy_influence_by_1 = yes
			add_timed_idea = {
				idea = ENG_nationalism_idea
				days = 365
			}
		}
		
		ai_will_do = {
			factor = 10
		}	
	}
	
	focus = {
		id = ENG_army_doctrine_1
		icon = army_doctrine
		x = @army_tree_center
		y = 4
		cost = 10
		
		prerequisite = {
			focus = ENG_artillery_for_britain
			focus = ENG_tanks_for_britain
		}
		
		completion_reward = {
			add_tech_bonus = {
				name = land_doc_bonus
				bonus = 0.4
				uses = 1
				category = land_doctrine
			}
		}
		
		ai_will_do = {
			factor = 10
		}	
	}
	
	focus = {
		id = ENG_air_force_doctrine_1
		icon = air_doctrine
		x = @air_tree_center
		y = 4
		cost = 10
		
		prerequisite = {
			focus = ENG_develop_our_fighters
			focus = ENG_develop_heavy_planes
		}
		
		completion_reward = {
			add_tech_bonus = {
				name = air_doc_bonus
				bonus = 0.4
				uses = 1
				category = air_doctrine
			}
		}
		
		ai_will_do = {
			factor = 10
		}	
	}
	
	focus = {
		id = ENG_naval_doctrine_1
		icon = naval_doctrine
		x = @navy_tree_center
		y = 4
		cost = 10
		
		prerequisite = {
			focus = ENG_develop_submarines
			focus = ENG_develop_carriers
		}
		
		completion_reward = {
			add_tech_bonus = {
				name = naval_doc_bonus
				bonus = 0.4
				uses = 1
				category = naval_doctrine
			}
		}
		
		ai_will_do = {
			factor = 10
		}	
	}
	
	focus = {
		id = ENG_english_factories
		icon = industry_military
		x = @economic_tree_very_far_left
		y = 5
		cost = 10
		
		prerequisite = {
			focus = ENG_english_industry
		}
		
		completion_reward = {
			random_owned_state = {
				limit = {
					OR = {
						region = 1
						region = 2
					}
					free_building_slots = {
						building = arms_factory
						size > 1
						include_locked = yes
					}
				}
				add_building_construction = {
					type = arms_factory
					level = 2
					instant_build = yes
				}
				add_extra_state_shared_building_slots = 2
			}
			random_owned_state = {
				limit = {
					OR = {
						region = 1
						region = 2
					}
					free_building_slots = {
						building = arms_factory
						size > 1
						include_locked = yes
					}
				}
				add_building_construction = {
					type = arms_factory
					level = 2
					instant_build = yes
				}
				add_extra_state_shared_building_slots = 2
			}
		}
		
		ai_will_do = {
			factor = 10
		}	
	}
	
	focus = {
		id = ENG_scottish_factories
		icon = industry_military
		x = @economic_tree_left
		y = 5
		cost = 10
		
		prerequisite = {
			focus = ENG_scottish_industry
		}
		
		bypass = {
			NOT = { owns_state = 120 }
			NOT = { owns_state = 121 }
			NOT = { owns_state = 133 }
			NOT = { owns_state = 136 }
		}
		
		completion_reward = {
			random_owned_state = {
				limit = {
					region = 3
					free_building_slots = {
						building = arms_factory
						size > 1
						include_locked = yes
					}
				}
				add_building_construction = {
					type = arms_factory
					level = 2
					instant_build = yes
				}
				add_extra_state_shared_building_slots = 2
			}
			random_owned_state = {
				limit = {
					region = 3
					free_building_slots = {
						building = arms_factory
						size > 0
						include_locked = yes
					}
				}
				add_building_construction = {
					type = arms_factory
					level = 1
					instant_build = yes
				}
				add_extra_state_shared_building_slots = 1
			}
		}
		
		ai_will_do = {
			factor = 10
		}	
	}
	
	focus = {
		id = ENG_liberal_economics
		icon = consumer_goods
		x = @home_ministry_tree_left
		y = 5
		cost = 10
		
		prerequisite = {
			focus = ENG_assure_individual_freedoms
		}
		
		completion_reward = {
			add_ideas = ENG_liberal_economics_idea
			add_popularity = {
				ideology = liberalism
				popularity = 0.03
			}
		}
		
		ai_will_do = {
			factor = 10
		}
	}
	
	focus = {
		id = ENG_internet_surveillance
		icon = propaganda
		x = @home_ministry_tree_right
		y = 5
		cost = 10
		
		prerequisite = {
			focus = ENG_public_CCTV_systems
		}
		
		completion_reward = {
			add_ideas = ENG_internet_surveillance_idea
		}
		
		ai_will_do = {
			factor = 10
		}
	}
	
	focus = {
		id = ENG_EU_border_compromise
		icon = align_to_europe
		x = @foreign_ministry_tree_far_left
		y = 5
		cost = 10
		
		prerequisite = {
			focus = ENG_strengthen_NATO
		}
		
		completion_reward = {
			country_event = britain.11
		}
		
		ai_will_do = {
			factor = 10
		}
	}
	
	focus = {
		id = ENG_propose_the_CANZUK_alliance
		icon = improve_relations
		x = @foreign_ministry_tree_center
		y = 5
		cost = 10
		
		prerequisite = {
			focus = ENG_go_with_the_commonwealth
		}
		prerequisite = {
			focus = ENG_leave_NATO
		}
		
		available = {
			has_democratic_form_of_government = yes
			has_idea = commonwealth_of_nations_member
			OR = {
				is_faction_leader = yes
				is_in_faction = no
			}
		}
		
		completion_reward = {
			if = {
				limit = {
					is_in_faction = no
				}
				create_faction = british_commonwealth
			}
			CAN = { country_event = britain.12 }
			AST = { country_event = britain.12 }
			NZL = { country_event = britain.12 }
		}
		
		ai_will_do = {
			factor = 10
		}
	}
	
	focus = {
		id = ENG_the_british_alliance
		icon = tripartite_pact
		x = @foreign_ministry_tree_far_right
		y = 5
		cost = 10
		
		prerequisite = {
			focus = ENG_britain_first
		}
		prerequisite = {
			focus = ENG_leave_NATO
		}
		
		completion_reward = {
			create_faction = british_alliance
		}
		
		ai_will_do = {
			factor = 10
		}
	}
	
	focus = {
		id = ENG_european_cooperation_2
		icon = major_alliance
		x = @europe_tree_left
		y = 5
		cost = 10
		
		prerequisite = {
			focus = ENG_european_logistics
		}
		
		available = {
			has_idea = idea_eu_member
		}
		
		completion_reward = {
			random_country = {
				limit = {
					NOT = { tag = GER }
					NOT = { tag = ENG }
					NOT = { tag = FRA }
					NOT = { tag = ITA }
					NOT = { has_country_flag = ENG_european_cooperation_received }
					has_idea = idea_eu_member
				}
				country_event = { id = european_union.6 } 
				set_country_flag = ENG_european_cooperation_received
			}
			random_country = {
				limit = {
					NOT = { tag = GER }
					NOT = { tag = ENG }
					NOT = { tag = FRA }
					NOT = { tag = ITA }
					NOT = { has_country_flag = ENG_european_cooperation_received }
					has_idea = idea_eu_member
				}
				country_event = { id = european_union.6 } 
				set_country_flag = ENG_european_cooperation_received
			}
			random_country = {
				limit = {
					NOT = { tag = GER }
					NOT = { tag = ENG }
					NOT = { tag = FRA }
					NOT = { tag = ITA }
					NOT = { has_country_flag = ENG_european_cooperation_received }
					has_idea = idea_eu_member
				}
				country_event = { id = european_union.6 } 
				set_country_flag = ENG_european_cooperation_received
			}
			random_country = {
				limit = {
					NOT = { tag = GER }
					NOT = { tag = ENG }
					NOT = { tag = FRA }
					NOT = { tag = ITA }
					NOT = { has_country_flag = ENG_european_cooperation_received }
					has_idea = idea_eu_member
				}
				country_event = { id = european_union.6 } 
				set_country_flag = ENG_european_cooperation_received
			}
			random_country = {
				limit = {
					NOT = { tag = GER }
					NOT = { tag = ENG }
					NOT = { tag = FRA }
					NOT = { tag = ITA }
					NOT = { has_country_flag = ENG_european_cooperation_received }
					has_idea = idea_eu_member
				}
				country_event = { id = european_union.6 } 
				set_country_flag = ENG_european_cooperation_received
			}
		}
		
		ai_will_do = {
			factor = 10
		}
	}
	
	focus = {
		id = ENG_EU_expansion_of_2004
		icon = align_to_europe
		x = @europe_tree_right
		y = 5
		cost = 25
		
		prerequisite = {
			focus = ENG_european_logistics
		}
		
		available = {
			has_idea = idea_eu_member
			has_offensive_war = no
			has_democratic_form_of_government = yes
		}
		
		bypass = {
			OR = {
				has_global_flag = eu_expansion_of_2004_focus
				AND = {
					EST = { has_idea = idea_eu_member }
					LAT = { has_idea = idea_eu_member }
					LIT = { has_idea = idea_eu_member }
					POL = { has_idea = idea_eu_member }
					CZE = { has_idea = idea_eu_member }
					SLO = { has_idea = idea_eu_member }
					SLV = { has_idea = idea_eu_member }
					HUN = { has_idea = idea_eu_member }
					MLT = { has_idea = idea_eu_member }
					CYP = { has_idea = idea_eu_member }
				}
			}
		}
		
		completion_reward = {
			set_global_flag = eu_expansion_of_2004_focus
			every_country = {
				limit = {
					OR = {
						tag = EST
						tag = LAT
						tag = LIT
						tag = POL
						tag = CZE
						tag = SLO
						tag = SLV
						tag = HUN
						tag = MLT
						tag = CYP
					}
					has_democratic_form_of_government = yes
					NOT = { has_idea = idea_eu_member }
					has_offensive_war = no
				}
				country_event = { id = european_union.5 }
			}
		}
		
		ai_will_do = {
			factor = 5
			modifier = {
				date < 2004.1.1
				factor = 0
			}
		}
	}
	
	focus = {
		id = ENG_investments_at_home
		icon = construction2
		x = @careful_tree_left
		y = 5
		cost = 10
		
		prerequisite = {
			focus = ENG_investments_abroad_1
		}
		
		mutually_exclusive = {
			focus = ENG_workforce_deal_with_ireland
		}
		
		completion_reward = {
			random_owned_state = {
				limit = {
					free_building_slots = {
						building = industrial_complex
						size > 0
						include_locked = yes
					}
				}
				add_extra_state_shared_building_slots = 1
				add_building_construction = {
					type = industrial_complex
					level = 1
					instant_build = yes
				}
			}
			random_owned_state = {
				limit = {
					free_building_slots = {
						building = arms_factory
						size > 0
						include_locked = yes
					}
				}
				add_extra_state_shared_building_slots = 1
				add_building_construction = {
					type = arms_factory
					level = 1
					instant_build = yes
				}
			}
			random_owned_state = {
				limit = {
					free_building_slots = {
						building = dockyard
						size > 0
						include_locked = yes
					}
				}
				add_extra_state_shared_building_slots = 1
				add_building_construction = {
					type = dockyard
					level = 1
					instant_build = yes
				}
			}
		}
		
		ai_will_do = {
			factor = 25
		}
	}
	
	focus = {
		id = ENG_workforce_deal_with_ireland
		icon = construction
		x = @careful_tree_right
		y = 5
		cost = 10
		
		prerequisite = {
			focus = ENG_investments_abroad_1
		}
		
		mutually_exclusive = {
			focus = ENG_investments_at_home
		}
		
		available = {
			owns_state = 119
			NOT = { has_war_with = IRE }
			NOT = { has_completed_focus = ENG_subjugate_ireland }
		}
		
		completion_reward = {
			IRE = { country_event = britain.13 }
		}
		
		ai_will_do = {
			factor = 10
			modifier = {
				factor = 0
				is_historical_focus_on = yes
			}
		}
	}
	
	focus = {
		id = ENG_national_development_2
		icon = construction3
		x = @europhobia_tree_center
		y = 5
		cost = 10
		
		prerequisite = {
			focus = ENG_national_development_1
		}
		
		completion_reward = {
			add_political_power = 20
			country_event = britain.9
		}
		
		ai_will_do = {
			factor = 10
		}
	}
	
	focus = {
		id = ENG_break_the_banks
		icon = communism3
		x = @to_the_left_tree_left
		y = 5
		cost = 10
		
		prerequisite = {
			focus = ENG_fight_capitalism
		}
		
		completion_reward = {
			add_ideas = ENG_broken_the_banks
		}
		
		ai_will_do = {
			factor = 10
		}
	}
	
	focus = {
		id = ENG_persecute_lobbyists
		icon = communism
		x = @to_the_left_tree_right
		y = 5
		cost = 10
		
		prerequisite = {
			focus = ENG_fight_capitalism
		}
		
		completion_reward = {
			add_war_support = 0.03
			add_ideas = ENG_persecuted_lobbyists
		}
		
		ai_will_do = {
			factor = 10
		}
	}
	
	focus = {
		id = ENG_royal_office_of_employment
		icon = production2
		x = @to_the_right_tree_very_far_left
		y = 5
		cost = 10
		
		prerequisite = {
			focus = ENG_benevolent_monarchy
		}
		
		completion_reward = {
			add_war_support = 0.05
			add_ideas = ENG_royal_office_of_employment_idea
		}
		
		ai_will_do = {
			factor = 10
		}
	}
	
	focus = {
		id = ENG_restore_the_british_empire
		icon = monarchy
		x = @to_the_right_tree_left
		y = 5
		cost = 10
		
		prerequisite = {
			focus = ENG_imperialism
		}
		
		mutually_exclusive = {
			focus = ENG_realm_of_britain
		}
		
		completion_reward = {
			add_popularity = {
				ideology = monarchism
				popularity = 0.1
			}
		}
		
		ai_will_do = {
			factor = 10
		}
	}
	
	focus = {
		id = ENG_realm_of_britain
		icon = enemy_of_britain
		x = @to_the_right_tree_right
		y = 5
		cost = 10
		
		prerequisite = {
			focus = ENG_imperialism
		}
		
		mutually_exclusive = {
			focus = ENG_restore_the_british_empire
		}
		
		completion_reward = {
			add_popularity = {
				ideology = nationalism
				popularity = 0.1
			}
		}
		
		ai_will_do = {
			factor = 10
		}
	}
	
	focus = {
		id = ENG_national_militarism
		icon = entente
		x = @to_the_right_tree_very_far_right
		y = 5
		cost = 10
		
		prerequisite = {
			focus = ENG_nationalism
		}
		
		completion_reward = {
			add_ideas = ENG_national_militarism_idea
		}
		
		ai_will_do = {
			factor = 10
		}
	}
	
	focus = {
		id = ENG_school_for_strategic_warfare
		icon = army_officers
		x = @army_tree_left
		y = 5
		cost = 10
		
		prerequisite = {
			focus = ENG_army_doctrine_1
		}
		
		completion_reward = {
			add_ideas = ENG_school_for_strategic_warfare_idea
		}
		
		ai_will_do = {
			factor = 10
		}
	}
	
	focus = {
		id = ENG_ground_support_planes
		icon = bombs
		x = @army_air_between
		y = 5
		cost = 10
		
		prerequisite = {
			focus = ENG_army_doctrine_1
		}
		prerequisite = {
			focus = ENG_air_force_doctrine_1
		}
		
		completion_reward = {
			add_ideas = ENG_ground_support_planes_idea
		}
		
		ai_will_do = {
			factor = 10
		}
	}
	
	focus = {
		id = ENG_air_force_doctrine_2
		icon = air_doctrine
		x = @air_tree_center
		y = 5
		cost = 10
		
		prerequisite = {
			focus = ENG_air_force_doctrine_1
		}
		
		completion_reward = {
			add_tech_bonus = {
				name = air_doc_bonus
				bonus = 0.4
				uses = 2
				category = air_doctrine
			}
		}
		
		ai_will_do = {
			factor = 10
		}
	}
	
	focus = {
		id = ENG_naval_support_planes
		icon = naval_bomber
		x = @air_navy_between
		y = 5
		cost = 10
		
		prerequisite = {
			focus = ENG_air_force_doctrine_1
		}
		prerequisite = {
			focus = ENG_naval_doctrine_1
		}
		
		completion_reward = {
			add_ideas = ENG_naval_support_planes_idea
		}
		
		ai_will_do = {
			factor = 10
		}
	}
	
	focus = {
		id = ENG_extra_research_slot_1
		icon = research
		x = @economic_tree_far_left
		y = 6
		cost = 10
		
		prerequisite = {
			focus = ENG_english_factories
		}
		prerequisite = {
			focus = ENG_dockyards_2
		}
		prerequisite = {
			focus = ENG_scottish_factories
		}
		
		completion_reward = {
			add_research_slot = 1
		}
		
		ai_will_do = {
			factor = 10
		}
	}
	
	focus = {
		id = ENG_air_travel_agreements_with_europe
		icon = air_defense
		x = @foreign_ministry_tree_far_left
		y = 6
		cost = 10
		
		prerequisite = {
			focus = ENG_EU_border_compromise
		}
		
		completion_reward = {
			country_event = britain.14
		}
		
		ai_will_do = {
			factor = 10
		}
	}
	
	focus = {
		id = ENG_invite_the_united_states
		icon = align_to_america
		x = @foreign_ministry_tree_center
		y = 6
		cost = 10
		
		prerequisite = {
			focus = ENG_propose_the_CANZUK_alliance
		}
		
		completion_reward = {
			USA = { country_event = britain.15 }
		}
		
		ai_will_do = {
			factor = 10
		}
	}
	
	focus = {
		id = ENG_diplomatic_sovereignity
		icon = political_pressure
		x = @foreign_ministry_tree_far_right
		y = 6
		cost = 10
		
		prerequisite = {
			focus = ENG_the_british_alliance
		}
		
		completion_reward = {
			add_ideas = ENG_diplomatic_sovereignity_idea
		}
		
		ai_will_do = {
			factor = 10
		}
	}
	
	focus = {
		id = ENG_european_military_cooperation
		icon = entente
		x = @europe_tree_center
		y = 6
		cost = 15
		
		prerequisite = {
			focus = ENG_european_cooperation_2
			focus = ENG_EU_expansion_of_2004
		}
		
		completion_reward = {
			every_country = {
				limit = {
					NOT = { tag = ENG }
					has_idea = idea_eu_member
				}
				country_event = britain.16
			}
		}
		
		ai_will_do = {
			factor = 10
		}
	}
	
	focus = {
		id = ENG_investments_abroad_2
		icon = trade_deal
		x = @careful_tree_center
		y = 6
		cost = 10
		
		prerequisite = {
			focus = ENG_investments_at_home
			focus = ENG_workforce_deal_with_ireland
		}
		
		completion_reward = {
			add_political_power = 15
			every_country = {
				limit = {
					NOT = { tag = ENG }
					capital_scope = { is_on_continent = africa }
					has_similar_form_of_government = yes
				}
				country_event = britain.8
			}
		}
		
		ai_will_do = {
			factor = 10
		}
	}
	
	focus = {
		id = ENG_defensive_constructions
		icon = military_fort
		x = @europhobia_tree_left
		y = 6
		cost = 10
		
		prerequisite = {
			focus = ENG_national_development_2
		}
		
		completion_reward = {
			add_ideas = ENG_defensive_constructions_idea
		}
		
		ai_will_do = {
			factor = 10
		}
	}
	
	focus = {
		id = ENG_industrial_development_program
		icon = industry_civilian
		x = @europhobia_tree_right
		y = 6
		cost = 10
		
		prerequisite = {
			focus = ENG_national_development_2
		}
		
		completion_reward = {
			add_ideas = ENG_industrial_development_program_idea
		}
		
		ai_will_do = {
			factor = 10
		}
	}
	
	focus = {
		id = ENG_universal_employment
		icon = communism4
		x = @to_the_left_tree_center
		y = 6
		cost = 10
		
		prerequisite = {
			focus = ENG_break_the_banks
		}
		prerequisite = {
			focus = ENG_persecute_lobbyists
		}
		
		completion_reward = {
			add_ideas = ENG_universal_employment_idea
		}
		
		ai_will_do = {
			factor = 10
		}
	}
	
	focus = {
		id = ENG_royal_industries
		icon = industry_civilian
		x = @to_the_right_tree_very_far_left
		y = 6
		cost = 10
		
		prerequisite = {
			focus = ENG_royal_office_of_employment
		}
		
		completion_reward = {
			add_ideas = ENG_royal_industrial_construction
		}
		
		ai_will_do = {
			factor = 10
		}
	}
	
	focus = {
		id = ENG_colonial_outposts_in_africa
		icon = british_africa
		x = @to_the_right_tree_left
		y = 6
		cost = 10
		
		prerequisite = {
			focus = ENG_restore_the_british_empire
		}
		
		available = {
			OR = {
				NOT = { is_in_faction_with = GAM }
				NOT = { is_in_faction_with = BEN }
				NOT = { is_in_faction_with = SIE }
			}
		}
		
		completion_reward = {
			if = {
				limit = {
					NOT = { is_in_faction_with = GAM }
				}
				create_wargoal = {
					target = GAM
					type = annex_everything
				}
			}
			if = {
				limit = {
					NOT = { is_in_faction_with = SIE }
				}
				create_wargoal = {
					target = SIE
					type = annex_everything
				}
			}
			if = {
				limit = {
					NOT = { is_in_faction_with = BEN }
				}
				create_wargoal = {
					target = BEN
					type = annex_everything
				}
			}
		}
		
		ai_will_do = {
			factor = 10
		}
	}
	
	focus = {
		id = ENG_subjugate_ireland
		icon = war2
		x = @to_the_right_tree_right
		y = 6
		cost = 10
		
		prerequisite = {
			focus = ENG_realm_of_britain
		}
		
		available = {
			NOT = { has_completed_focus = ENG_workforce_deal_with_ireland }
		}
		
		completion_reward = {
			create_wargoal = {
				target = IRE
				type = annex_everything
			}
		}
		
		ai_will_do = {
			factor = 10
		}
	}
	
	focus = {
		id = ENG_reorganize_the_education_system
		icon = tank_prototype
		x = @to_the_right_tree_very_far_right
		y = 6
		cost = 10
		
		prerequisite = {
			focus = ENG_national_militarism
		}
		
		completion_reward = {
			country_event = britain.17
		}
		
		ai_will_do = {
			factor = 10
		}
	}
	
	focus = {
		id = ENG_army_doctrine_2
		icon = army_doctrine
		x = @army_tree_center
		y = 6
		cost = 10
		
		prerequisite = {
			focus = ENG_army_doctrine_1
		}
		
		completion_reward = {
			add_tech_bonus = {
				name = land_doc_bonus
				bonus = 0.4
				uses = 1
				category = land_doctrine
			}
		}
		
		ai_will_do = {
			factor = 10
		}
	}
	
	focus = {
		id = ENG_ground_crew_training
		icon = airforce
		x = @air_tree_center
		y = 6
		cost = 10
		
		prerequisite = {
			focus = ENG_air_force_doctrine_2
		}
		
		completion_reward = {
			air_experience = 30
			add_tech_bonus = {
				name = air_doc_bonus
				bonus = 0.2
				uses = 1
				category = air_doctrine
			}
		}
		
		ai_will_do = {
			factor = 10
		}
	}
	
	focus = {
		id = ENG_naval_doctrine_2
		icon = naval_doctrine
		x = @navy_tree_center
		y = 6
		cost = 10
		
		prerequisite = {
			focus = ENG_naval_doctrine_1
		}
		
		completion_reward = {
			air_experience = 10
			add_tech_bonus = {
				name = naval_doc_bonus
				bonus = 0.4
				uses = 1
				category = naval_doctrine
			}
		}
		
		ai_will_do = {
			factor = 10
		}
	}
	
	focus = {
		id = ENG_invite_the_commonwealth
		icon = align_to_india
		x = @foreign_ministry_tree_center
		y = 7
		cost = 10
		
		prerequisite = {
			focus = ENG_invite_the_united_states
		}
		
		available = {
			is_faction_leader = yes
		}
		
		completion_reward = {
			every_country = {
				limit = {
					NOT = { tag = USA }
					NOT = { tag = ENG }
					NOT = { tag = CAN }
					NOT = { tag = NZL }
					NOT = { tag = AST }
					has_idea = commonwealth_of_nations_member
					NOT = { is_in_faction_with = ENG }
				}
				country_event = britain.15
			}
		}
		
		ai_will_do = {
			factor = 10
		}
	}
	
	focus = {
		id = ENG_european_cooperation_3
		icon = major_alliance
		x = @europe_tree_left
		y = 7
		cost = 10
		
		prerequisite = {
			focus = ENG_european_cooperation_2
		}
		prerequisite = {
			focus = ENG_european_military_cooperation
		}
		
		completion_reward = {
			every_country = {
				limit = {
					NOT = { tag = GER }
					NOT = { tag = ENG }
					NOT = { tag = FRA }
					NOT = { tag = ITA }
					has_idea = idea_eu_member
					NOT = { has_country_flag = ENG_european_cooperation_received }
				}
				country_event = european_union.6
				set_country_flag = ENG_european_cooperation_received
			}
		}
		
		ai_will_do = {
			factor = 10
		}
	}
	
	focus = {
		id = ENG_EU_expansion_of_2007
		icon = align_to_europe
		x = @europe_tree_right
		y = 7
		cost = 25
		
		prerequisite = {
			focus = ENG_european_military_cooperation
		}
		prerequisite = {
			focus = ENG_EU_expansion_of_2004
		}
		
		available = {
			has_idea = idea_eu_member
			has_offensive_war = no
			has_democratic_form_of_government = yes
		}
		
		bypass = {
			OR = {
				has_global_flag = eu_expansion_of_2007_focus
				AND = {
					ROM = { has_idea = idea_eu_member }
					BUL = { has_idea = idea_eu_member }
				}
			}
		}
		
		completion_reward = {
			set_global_flag = eu_expansion_of_2007_focus
			every_country = {
				limit = {
					OR = {
						tag = ROM
						tag = BUL
					}
					has_democratic_form_of_government = yes
					NOT = { has_idea = idea_eu_member }
					has_offensive_war = no
				}
				country_event = { id = european_union.5 }
			}
		}
		
		ai_will_do = {
			factor = 10
			modifier = {
				date < 2007.1.1
				factor = 0
			}
		}
	}
	
	focus = {
		id = ENG_develop_infrastructure
		icon = infrastructure
		x = @careful_tree_left
		y = 7
		cost = 10
		
		prerequisite = {
			focus = ENG_investments_abroad_2
		}
		
		completion_reward = {
			every_owned_state = {
				limit = {
					OR = {
						region = 1
						region = 2
						region = 3
						region = 4
					}
					free_building_slots = {
						building = infrastructure
						size > 0
					}
				}
				add_building_construction = {
					type = infrastructure
					level = 1
					instant_build = yes
				}
			}
		}
		
		ai_will_do = {
			factor = 10
		}
	}
	
	focus = {
		id = ENG_national_development_3
		icon = construction3
		x = @europhobia_tree_center
		y = 7
		cost = 15
		
		prerequisite = {
			focus = ENG_defensive_constructions
		}
		
		completion_reward = {
			add_political_power = 50
			add_war_support = 0.05
			country_event = britain.9
		}
		
		ai_will_do = {
			factor = 10
		}
	}
	
	focus = {
		id = ENG_invest_in_resources
		icon = industry_marxism_leninism
		x = @to_the_left_tree_left
		y = 7
		cost = 10
		
		prerequisite = {
			focus = ENG_universal_employment
		}
		
		completion_reward = {
			if = {
				limit = {
					any_country = {
						OR = {
							tag = ENG
							is_puppet_of = ENG
						}
						owns_state = 121
					}
				}
				add_resource = { 	#Lothian
					type = oil 
					amount = 5
					state = 121
				}
			}
			if = {
				limit = {
					any_country = {
						OR = {
							tag = ENG
							is_puppet_of = ENG
						}
						owns_state = 128
					}
				}
				add_resource = { 	#West Midlands
					type = steel
					amount = 15
					state = 128
				}
				add_resource = { 	#West Midlands
					type = chromium
					amount = 3
					state = 128
				}
			}
		}
		
		ai_will_do = {
			factor = 10
		}
	}
	
	focus = {
		id = ENG_establish_a_revolutionary_committee
		icon = communism3
		x = @to_the_left_tree_right
		y = 7
		cost = 10
		
		prerequisite = {
			focus = ENG_universal_employment
		}
		
		completion_reward = {
			add_ideas = ENG_revolutionary_committee
			every_country = {
				limit = {
					OR = {
						has_idea = idea_eu_member
						has_idea = commonwealth_of_nations_member
						is_in_faction_with = ENG
					}
					NOT = { has_government = marxism_leninism }
				}
				country_event = britain.18
			}
		}
		
		ai_will_do = {
			factor = 10
		}
	}
	
	focus = {
		id = ENG_royal_factories
		icon = industry_military
		x = @to_the_right_tree_very_far_left
		y = 7
		cost = 10
		
		prerequisite = {
			focus = ENG_royal_industries
		}
		
		completion_reward = {
			add_ideas = ENG_royal_military_construction
		}
		
		ai_will_do = {
			factor = 10
		}
	}
	
	focus = {
		id = ENG_restore_the_cape_colony
		icon = attack_monarchy
		x = @to_the_right_tree_center
		y = 7
		cost = 10
		
		prerequisite = {
			focus = ENG_colonial_outposts_in_africa
			focus = ENG_subjugate_ireland
		}
		
		available = {
			NOT = { is_in_faction_with = SAF }
		}
		
		completion_reward = {
			create_wargoal = {
				type = puppet_wargoal_focus
				target = SAF
			}
			every_country = {
				limit = {
					OR = {
						tag = ENG
						is_in_faction_with = ENG
						tag = SAF
						is_in_faction_with = SAF
					}
				}
				news_event = news.62
			}
		}
		
		ai_will_do = {
			factor = 10
		}
	}
	
	focus = {
		id = ENG_maintain_a_multiethnic_army
		icon = fascism
		x = @to_the_right_tree_far_right
		y = 7
		cost = 10
		
		prerequisite = {
			focus = ENG_reorganize_the_education_system
		}
		
		mutually_exclusive = {
			focus = ENG_national_office_for_the_colored_workforce
		}
		
		completion_reward = {
			add_popularity = {
				ideology = nationalism
				popularity = 0.05
			}
			add_ideas = ENG_multiethnic_army
		}
		
		ai_will_do = {
			factor = 15
		}
	}
	
	focus = {
		id = ENG_national_office_for_the_colored_workforce
		icon = fascism2
		x = @to_the_right_tree_very_far_right_plus_one
		y = 7
		cost = 10
		
		prerequisite = {
			focus = ENG_reorganize_the_education_system
		}
		
		mutually_exclusive = {
			focus = ENG_maintain_a_multiethnic_army
		}
		
		completion_reward = {
			add_popularity = {
				ideology = autocracy
				popularity = 0.05
			}
			add_ideas = ENG_modern_slavery
		}
		
		ai_will_do = {
			factor = 10
		}
	}
	
	focus = {
		id = ENG_army_of_quality
		icon = cavalry
		x = @army_tree_left
		y = 7
		cost = 10
		
		prerequisite = {
			focus = ENG_army_doctrine_2
		}
		
		mutually_exclusive = {
			focus = ENG_army_of_quantity
		}
		
		completion_reward = {
			add_ideas = ENG_army_of_quality_idea
		}
		
		ai_will_do = {
			factor = 10
		}
	}
	
	focus = {
		id = ENG_army_of_quantity
		icon = artillery
		x = @army_tree_right
		y = 7
		cost = 10
		
		prerequisite = {
			focus = ENG_army_doctrine_2
		}
		
		mutually_exclusive = {
			focus = ENG_army_of_quality
		}
		
		completion_reward = {
			add_ideas = ENG_army_of_quantity_idea
		}
		
		ai_will_do = {
			factor = 10
		}
	}
	
	focus = {
		id = ENG_improve_our_small_ships
		icon = cruisers
		x = @navy_tree_left
		y = 7
		cost = 20
		
		prerequisite = {
			focus = ENG_naval_doctrine_2
		}
		
		completion_reward = {
			add_ideas = ENG_small_ship_project
		}
		
		ai_will_do = {
			factor = 10
		}
	}
	
	focus = {
		id = ENG_improve_our_large_ships
		icon = battleships
		x = @navy_tree_right
		y = 7
		cost = 20
		
		prerequisite = {
			focus = ENG_naval_doctrine_2
		}
		
		completion_reward = {
			add_ideas = ENG_large_ship_project
		}
		
		ai_will_do = {
			factor = 10
		}
	}
	
	focus = {
		id = ENG_EU_expansion_of_2013
		icon = align_to_europe
		x = @europe_tree_center
		y = 8
		cost = 25
		
		prerequisite = {
			focus = ENG_EU_expansion_of_2007
		}
		
		available = {
			has_idea = idea_eu_member
			has_offensive_war = no
		}
		
		bypass = {
			OR = {
				has_global_flag = eu_expansion_of_2013_focus
				CRO = { has_idea = idea_eu_member }
			}
		}
		
		completion_reward = {
			set_global_flag = eu_expansion_of_2013_focus
			every_country = {
				limit = {
					OR = {
						tag = CRO
					}
					has_democratic_form_of_government = yes
					NOT = { has_idea = idea_eu_member }
					has_offensive_war = no
				}
				country_event = { id = european_union.5 }
			}
		}
		
		ai_will_do = {
			factor = 10
			modifier = {
				date < 2013.1.1
				factor = 0
			}
		}
	}
	
	focus = {
		id = ENG_investments_abroad_3
		icon = trade_deal
		x = @careful_tree_center
		y = 8
		cost = 10
		
		prerequisite = {
			focus = ENG_investments_abroad_2
		}
		
		completion_reward = {
			add_political_power = 15
			every_country = {
				limit = {
					NOT = { tag = ENG }
					capital_scope = { 
						OR = {
							is_on_continent = asia 
							is_on_continent = south_america
						}
					}
					has_similar_form_of_government = yes
				}
				country_event = britain.8
			}
		}
		
		ai_will_do = {
			factor = 10
		}	
	}
	
	focus = {
		id = ENG_socialist_secret_police
		icon = communism
		x = @to_the_left_tree_center
		y = 8
		cost = 10
		
		prerequisite = {
			focus = ENG_establish_a_revolutionary_committee
		}
		
		completion_reward = {
			add_ideas = ENG_secret_police
		}
		
		ai_will_do = {
			factor = 10
		}	
	}
	
	focus = {
		id = ENG_the_throne_of_all_britons
		icon = monarchy
		x = @to_the_right_tree_very_far_left
		y = 8
		cost = 10
		
		prerequisite = {
			focus = ENG_royal_factories
		}
		
		completion_reward = {
			add_war_support = 0.05
			add_political_power = 50
			add_popularity = {
				ideology = monarchism
				popularity = 0.1
			}
			add_ideas = ENG_the_great_throne
		}
		
		ai_will_do = {
			factor = 10
		}	
	}
	
	focus = {
		id = ENG_restore_the_raj
		icon = india_british_influence
		x = @to_the_right_tree_left
		y = 8
		cost = 10
		
		prerequisite = {
			focus = ENG_colonial_outposts_in_africa
		}
		
		available = {
			NOT = { is_in_faction_with = RAJ }
		}
		
		completion_reward = {
			create_wargoal = {
				type = puppet_wargoal_focus
				target = RAJ
			}
			news_event = news.63
		}
		
		ai_will_do = {
			factor = 10
		}	
	}
	
	focus = {
		id = ENG_revolt_in_quebec
		icon = quebec_deal
		x = @to_the_right_tree_right
		y = 8
		cost = 10
		
		prerequisite = {
			focus = ENG_subjugate_ireland
		}
		
		available = {
			NOT = { is_in_faction_with = CAN }
		}
		
		completion_reward = {
			country_event = britain.19
		}
		
		ai_will_do = {
			factor = 10
		}	
	}
	
	focus = {
		id = ENG_jingoism
		icon = war
		x = @to_the_right_tree_very_far_right
		y = 8
		cost = 10
		
		prerequisite = {
			focus = ENG_maintain_a_multiethnic_army
			focus = ENG_national_office_for_the_colored_workforce
		}
		
		completion_reward = {
			add_ideas = ENG_jingoism_idea
		}
		
		ai_will_do = {
			factor = 10
		}	
	}
	
	focus = {
		id = ENG_army_doctrine_3
		icon = army_doctrine
		x = @army_tree_center
		y = 8
		cost = 10
		
		prerequisite = {
			focus = ENG_army_of_quality
			focus = ENG_army_of_quantity
		}
		
		completion_reward = {
			army_experience = 25
			add_tech_bonus = {
				name = land_doc_bonus
				bonus = 0.4
				uses = 1
				category = land_doctrine
			}
		}
		
		ai_will_do = {
			factor = 10
		}
	}
	
	focus = {
		id = ENG_naval_doctrine_3
		icon = naval_doctrine
		x = @navy_tree_center
		y = 8
		cost = 10
		
		prerequisite = {
			focus = ENG_improve_our_large_ships
		}
		prerequisite = {
			focus = ENG_improve_our_small_ships
		}
		
		completion_reward = {
			navy_experience = 25
			add_tech_bonus = {
				name = naval_doc_bonus
				bonus = 0.4
				uses = 1
				category = naval_doctrine
			}
		}
		
		ai_will_do = {
			factor = 10
		}
	}
	
	focus = {
		id = ENG_one_union
		icon = align_to_europe
		x = @europe_tree_left
		y = 9
		cost = 20
		
		prerequisite = {
			focus = ENG_EU_expansion_of_2013
		}
		
		available = {
			NOT = { has_global_flag = the_path_towards_europe }
			has_idea = idea_eu_member
		}
		
		mutually_exclusive = {
			focus = ENG_union_of_nations
		}
		
		completion_reward = {
			set_global_flag = the_path_towards_europe
			add_political_power = 25
		}
		
		ai_will_do = {
			factor = 10
			modifier = {
				factor = 0
				is_historical_focus_on = yes
			}
		}
	}
	
	focus = {
		id = ENG_union_of_nations
		icon = national_unity
		x = @europe_tree_right
		y = 9
		cost = 20
		
		prerequisite = {
			focus = ENG_investments_abroad_3
			focus = ENG_EU_expansion_of_2013
		}
		
		mutually_exclusive = {
			focus = ENG_one_union
		}
		
		completion_reward = {
			add_political_power = 75
		}
		
		ai_will_do = {
			factor = 10
		}
	}
	
	focus = {
		id = ENG_royal_army
		icon = tank2
		x = @army_tree_center
		y = 9
		cost = 25
		
		prerequisite = {
			focus = ENG_army_doctrine_3
		}
		
		completion_reward = {
			add_ideas = ENG_royal_army_idea
		}
		
		ai_will_do = {
			factor = 10
		}
	}
	
	focus = {
		id = ENG_britannia_rules_the_waves
		icon = amphibious_assault
		x = @navy_tree_center
		y = 9
		cost = 25
		
		prerequisite = {
			focus = ENG_naval_doctrine_3
		}
		
		completion_reward = {
			add_ideas = ENG_rule_the_waves
		}
		
		ai_will_do = {
			factor = 10
		}
	}
	
	focus = {
		id = ENG_defensive_assistance
		icon = defence
		x = @europe_tree_center
		y = 10
		cost = 10
		
		prerequisite = {
			focus = ENG_one_union
			focus = ENG_union_of_nations
		}
		
		available = {
			has_idea = idea_eu_member
		}
		
		completion_reward = {
			every_country = {
				limit = {
					has_idea = idea_eu_member
					NOT = { tag = ENG }
				}
				country_event = britain.21
			}
		}
		
		ai_will_do = {
			factor = 10
		}
	}
	
	focus = {
		id = ENG_prepare_unification_treaties
		icon = national_unity
		x = @europe_tree_left
		y = 11
		cost = 10
		
		prerequisite = {
			focus = ENG_one_union
		}
		prerequisite = {
			focus = ENG_defensive_assistance
		}
		
		available = {
			has_idea = idea_eu_member
		}
		
		completion_reward = {
			add_political_power = 25
			add_war_support = -0.05
			news_event = news.64
		}
		
		ai_will_do = {
			factor = 10
		}
	}
	
	focus = {
		id = ENG_european_cooperation_4
		icon = major_alliance
		x = @europe_tree_right
		y = 11
		cost = 15
		
		prerequisite = {
			focus = ENG_union_of_nations
		}
		prerequisite = {
			focus = ENG_defensive_assistance
		}
		
		completion_reward = {
			every_country = {
				limit = {
					has_idea = idea_eu_member
					not = { tag = ENG }
					not = { tag = GER }
					not = { tag = ITA }
					not = { tag = FRA }
				}
				country_event = european_union.6
			}
		}
		
		ai_will_do = {
			factor = 10
		}
	}
	
	focus = {
		id = ENG_extra_research_slot_2
		icon = research
		x = @europe_tree_right_plus_one
		y = 12
		cost = 15
		
		prerequisite = {
			focus = ENG_european_cooperation_4
		}
		
		completion_reward = {
			add_research_slot = 1
		}
		
		ai_will_do = {
			factor = 10
		}
	}
	
	focus = {
		id = ENG_call_the_union
		icon = align_to_europe
		x = @europe_tree_left
		y = 13
		cost = 15
		
		prerequisite = {
			focus = ENG_prepare_unification_treaties
		}
		
		available = {
			has_idea = idea_eu_member
		}
		
		completion_reward = {
			country_event = european_union.3
		}
		
		ai_will_do = {
			factor = 10
		}
	}
	
	focus = {
		id = ENG_european_cooperation_5
		icon = major_alliance
		x = @europe_tree_right
		y = 13
		cost = 15
		
		prerequisite = {
			focus = ENG_european_cooperation_4
		}
		
		completion_reward = {
			every_country = {
				limit = {
					has_idea = idea_eu_member
					not = { tag = ENG }
				}
				country_event = european_union.6
			}
		}
		
		ai_will_do = {
			factor = 10
		}
	}
}