
# MAIN THEME
music = 
{
	name = "maintheme"
	file = "maintheme.ogg"
	volume = 1.0
}

music = 
{
	name = "WiC - Broken Flower"
	file = "WiC - Broken Flower.ogg"
	volume = 1.0
}

music = 
{
	name = "WiC SA - Aurora Borealis"
	file = "WiC SA - Aurora Borealis.ogg"
	volume = 1.0
}